<?xml version="1.0" encoding="UTF-8" standalone="no"?>
<!-- Created with Inkscape (http://www.inkscape.org/) -->

<svg
   width="1024"
   height="1024"
   version="1.1"
   viewBox="0 0 1024 1024"
   id="svg13"
   sodipodi:docname="logo_--_src.svg"
   inkscape:version="1.2 (dc2aeda, 2022-05-15)"
   inkscape:export-filename="logo.png"
   inkscape:export-xdpi="24"
   inkscape:export-ydpi="24"
   xmlns:inkscape="http://www.inkscape.org/namespaces/inkscape"
   xmlns:sodipodi="http://sodipodi.sourceforge.net/DTD/sodipodi-0.dtd"
   xmlns:xlink="http://www.w3.org/1999/xlink"
   xmlns="http://www.w3.org/2000/svg"
   xmlns:svg="http://www.w3.org/2000/svg">
  <defs
     id="defs17" />
  <sodipodi:namedview
     id="namedview15"
     pagecolor="#ffffff"
     bordercolor="#666666"
     borderopacity="1.0"
     inkscape:showpageshadow="2"
     inkscape:pageopacity="0.0"
     inkscape:pagecheckerboard="true"
     inkscape:deskcolor="#d1d1d1"
     showgrid="true"
     showborder="true"
     inkscape:zoom="0.61230469"
     inkscape:cx="527.51515"
     inkscape:cy="520.16587"
     inkscape:window-width="1378"
     inkscape:window-height="847"
     inkscape:window-x="62"
     inkscape:window-y="25"
     inkscape:window-maximized="1"
     inkscape:current-layer="g2"
     showguides="false">
    <inkscape:grid
       id="grid2"
       units="px"
       originx="0"
       originy="0"
       spacingx="1"
       spacingy="1"
       empcolor="#0099e5"
       empopacity="0.30196078"
       color="#0099e5"
       opacity="0.14901961"
       empspacing="5"
       dotted="false"
       gridanglex="30"
       gridanglez="30"
       visible="true" />
  </sodipodi:namedview>
  <g
     inkscape:groupmode="layer"
     id="layer1"
     inkscape:label="back"
     style="display:none"
     sodipodi:insensitive="true">
    <rect
       style="display:inline;fill:#f2f2f2;fill-opacity:1;stroke-width:1.7;stroke-linecap:round"
       id="rect229"
       width="1024"
       height="1024"
       x="0"
       y="0"
       rx="200" />
  </g>
  <g
     inkscape:groupmode="layer"
     id="layer3"
     inkscape:label="path"
     style="display:none"
     sodipodi:insensitive="true">
    <g
       aria-label="#S"
       transform="scale(0.94248851,1.0610209)"
       id="text207"
       style="font-weight:500;font-size:600px;line-height:1.25;font-family:Futura;-inkscape-font-specification:'Futura, Medium';word-spacing:0px;display:inline;stroke-width:0.440211">
      <path
         d="m 550.56691,383.82367 v 51.5625 H 479.3755 l -10.54687,84.08203 h 65.03906 v 51.5625 h -71.48437 l -17.28516,140.03906 -51.5625,-6.73828 16.69922,-133.30078 H 323.22316 L 305.64503,711.06976 253.4966,704.33148 270.19582,569.85883 H 203.39894 V 519.4682 h 74.12109 l 10.54688,-84.08203 h -67.67578 v -51.5625 h 74.12109 l 16.11328,-131.25 51.26953,6.73828 -15.52734,124.51172 h 86.42578 l 16.40625,-131.25 51.26953,6.73828 -15.52734,124.51172 z m -124.21875,51.5625 h -86.13281 l -10.54688,84.08203 h 86.71875 z"
         id="path211" />
      <path
         d="m 871.36769,324.05804 -55.37109,32.8125 q -15.52735,-26.95312 -29.58985,-35.15625 -14.64843,-9.375 -37.79297,-9.375 -28.41796,0 -47.16796,16.11329 -18.75,15.82031 -18.75,39.84375 0,33.10546 49.21875,53.32031 l 45.11718,18.45703 q 55.07813,22.26562 80.56641,54.49219 25.48828,31.93359 25.48828,78.51562 0,62.40235 -41.60156,103.125 -41.89453,41.01563 -104.00391,41.01563 -58.88672,0 -97.26562,-34.86328 -37.79297,-34.86329 -47.16797,-98.14454 L 662.188,568.97992 q 4.6875,39.84375 16.40625,55.07812 21.09375,29.29688 61.52344,29.29688 31.93359,0 53.02734,-21.38672 21.09375,-21.38672 21.09375,-54.19922 0,-13.18359 -3.80859,-24.02344 -3.51562,-11.13281 -11.42578,-20.21484 -7.61719,-9.375 -19.92188,-17.28516 -12.30468,-8.20312 -29.29687,-15.52734 l -43.65234,-18.16406 q -92.8711,-39.25781 -92.8711,-114.84375 0,-50.97656 38.96485,-85.25391 38.96484,-34.57031 96.97265,-34.57031 78.22266,0 122.16797,76.17187 z"
         id="path213" />
    </g>
  </g>
  <g
     inkscape:groupmode="layer"
     id="layer2"
     inkscape:label="txt"
     style="display:none"
     sodipodi:insensitive="true">
    <text
       transform="scale(0.94248851,1.0610209)"
       x="167.26611"
       y="697.23523"
       font-family="Courier"
       font-size="105.828px"
       stroke-width="0.440211"
       word-spacing="0px"
       style="font-style:normal;font-variant:normal;font-weight:normal;font-stretch:normal;font-size:666.667px;line-height:1.25;font-family:Courier;-inkscape-font-specification:'Courier, Normal';font-variant-ligatures:normal;font-variant-caps:normal;font-variant-numeric:normal;font-variant-east-asian:normal;word-spacing:0px;display:inline;stroke-width:0.440211"
       xml:space="preserve"
       id="text11"><tspan
         x="167.26611"
         y="697.23523"
         font-family="Courier"
         font-size="105.828px"
         stroke-width="0.440211"
         style="font-style:normal;font-variant:normal;font-weight:normal;font-stretch:normal;font-size:666.667px;font-family:Courier;-inkscape-font-specification:'Courier, Normal';font-variant-ligatures:normal;font-variant-caps:normal;font-variant-numeric:normal;font-variant-east-asian:normal"
         id="tspan9">#S</tspan></text>
  </g>
  <g
     inkscape:groupmode="layer"
     id="layer4"
     inkscape:label="orange"
     style="display:inline"
     sodipodi:insensitive="true">
    <rect
       style="fill:#fbab3a;fill-opacity:1;stroke-width:3.77953"
       id="rect1"
       width="1024"
       height="1024"
       x="5.05201e-07"
       y="0" />
  </g>
  <g
     inkscape:groupmode="layer"
     id="g2"
     inkscape:label="txt Kopie"
     style="display:none"
     sodipodi:insensitive="true">
    <text
       transform="scale(0.94248851,1.0610209)"
       x="238.70169"
       y="656.44574"
       font-family="Courier"
       font-size="105.828px"
       stroke-width="0.440211"
       word-spacing="0px"
       style="font-style:normal;font-variant:normal;font-weight:normal;font-stretch:normal;font-size:540px;line-height:1.25;font-family:Courier;-inkscape-font-specification:'Courier, Normal';font-variant-ligatures:normal;font-variant-caps:normal;font-variant-numeric:normal;font-variant-east-asian:normal;word-spacing:0px;display:inline;stroke-width:0.440211"
       xml:space="preserve"
       id="text2"><tspan
         x="238.70169"
         y="656.44574"
         font-family="Courier"
         font-size="105.828px"
         stroke-width="0.440211"
         style="font-style:normal;font-variant:normal;font-weight:normal;font-stretch:normal;font-size:540px;font-family:Courier;-inkscape-font-specification:'Courier, Normal';font-variant-ligatures:normal;font-variant-caps:normal;font-variant-numeric:normal;font-variant-east-asian:normal"
         id="tspan2">#S</tspan></text>
  </g>
  <g
     inkscape:groupmode="layer"
     id="layer7"
     inkscape:label="bogen"
     style="display:none"
     sodipodi:insensitive="true">
    <path
       style="display:inline;fill:none;fill-opacity:1;stroke:#000000;stroke-width:2.72556;stroke-opacity:1"
       d="M 247.82099,287.69768 C 408.40224,166.49591 610.36,170.2014 776.22177,285.58349"
       id="path5"
       sodipodi:nodetypes="cc" />
    <path
       style="display:inline;fill:none;fill-opacity:1;stroke:#000000;stroke-width:3.77953;stroke-opacity:1"
       d="m 262.052,787.91407 c 118,86.08593 348,96.08593 500,0"
       id="path6"
       sodipodi:nodetypes="cc" />
  </g>
  <g
     inkscape:groupmode="layer"
     id="layer6"
     inkscape:label="personal"
     style="display:none"
     sodipodi:insensitive="true">
    <text
       xml:space="preserve"
       style="font-style:normal;font-variant:normal;font-weight:normal;font-stretch:normal;font-size:50.6667px;font-family:Courier;-inkscape-font-specification:'Courier, Normal';font-variant-ligatures:normal;font-variant-caps:normal;font-variant-numeric:normal;font-variant-east-asian:normal;display:inline;fill:#000000;fill-opacity:1;stroke:none;stroke-width:2.64604;stroke-opacity:1"
       id="text5"><textPath
         xlink:href="#path5"
         id="textPath7"><tspan
           id="tspan5"
           style="font-style:normal;font-variant:normal;font-weight:normal;font-stretch:normal;font-size:50.6667px;font-family:Courier;-inkscape-font-specification:'Courier, Normal';font-variant-ligatures:normal;font-variant-caps:normal;font-variant-numeric:normal;font-variant-east-asian:normal;stroke-width:2.64604">Personal Social Web</tspan></textPath></text>
    <text
       xml:space="preserve"
       style="font-style:normal;font-variant:normal;font-weight:bold;font-stretch:normal;font-size:69.3333px;font-family:Courier;-inkscape-font-specification:'Courier, Bold';font-variant-ligatures:normal;font-variant-caps:normal;font-variant-numeric:normal;font-variant-east-asian:normal;display:inline;fill:#000000;fill-opacity:1;stroke:none;stroke-width:5.0257;stroke-opacity:1"
       id="text6"
       inkscape:label="text6"
       transform="translate(11.20465)"><textPath
         xlink:href="#path6"
         id="textPath8">Seppo.Social</textPath></text>
  </g>
  <g
     inkscape:groupmode="layer"
     id="layer9"
     inkscape:label="txt Paths"
     style="display:inline"
     sodipodi:insensitive="true">
    <g
       aria-label="#S"
       transform="scale(0.94248851,1.0610209)"
       id="text2923"
       style="font-size:540px;line-height:1.25;font-family:Courier;-inkscape-font-specification:'Courier, Normal';word-spacing:0px;display:inline;stroke-width:0.440211">
      <path
         d="m 362.89114,516.1723 h 56.68946 l 23.73047,-66.44531 h -56.68946 z m -54.05273,150.0293 q -2.10938,5.80078 -5.53711,8.4375 -3.16406,2.90039 -7.91016,2.90039 -8.70117,0 -14.23828,-4.48242 -5.27343,-4.48242 -5.27343,-11.86524 0,-1.05468 0.52734,-2.63672 0.52734,-1.58203 1.05469,-3.16406 l 39.02343,-108.63281 h -59.32617 q -8.17383,0 -12.65625,-3.69141 -4.21875,-3.95507 -4.21875,-11.33789 0,-7.38281 4.48242,-11.33789 4.48243,-4.21875 12.39258,-4.21875 h 70.13672 l 23.73047,-66.44531 h -70.13672 q -8.17383,0 -12.65625,-3.95508 -4.21875,-3.95508 -4.21875,-11.33789 0,-7.38281 4.48242,-11.60156 4.7461,-4.48242 12.39258,-4.48242 h 80.94727 L 404.5513,298.90668 q 2.10938,-5.80078 5.27344,-8.4375 3.42773,-2.90039 8.17383,-2.90039 8.4375,0 13.71093,4.48242 5.27344,4.48242 5.27344,11.86523 0,2.10938 -0.26367,3.42774 -0.26367,1.31836 -0.79102,2.37304 l -38.49609,108.63282 h 56.68945 L 497.3638,298.90668 q 1.8457,-5.53711 5.27344,-8.4375 3.6914,-2.90039 8.17383,-2.90039 8.17382,0 13.71093,4.74609 5.80078,4.48242 5.80078,11.07422 0,1.58203 -0.52734,3.16406 -0.26367,1.58203 -1.05469,3.16406 l -39.02343,108.63282 h 55.10742 q 7.91015,0 12.39258,4.21875 4.48242,4.21875 4.48242,11.33789 0,7.38281 -4.48242,11.60156 -4.48243,4.21875 -12.39258,4.21875 H 478.90677 L 455.1763,516.1723 h 65.39063 q 7.91015,0 12.39257,4.21875 4.48243,3.95508 4.48243,11.33789 0,7.38282 -4.48243,11.33789 -4.21875,3.69141 -12.39257,3.69141 H 444.36575 L 401.65091,666.2016 q -1.8457,5.80078 -5.27344,8.4375 -3.42773,2.90039 -8.17383,2.90039 -8.4375,0 -13.97461,-4.48242 -5.27343,-4.48242 -5.27343,-11.86524 0,-1.05468 0.26367,-2.63672 0.52734,-1.58203 1.31836,-3.16406 L 408.77005,546.75824 H 352.0806 Z"
         id="path3002" />
      <path
         d="m 647.65677,647.21722 q -1.31836,11.86524 -6.06445,16.34766 -4.7461,4.74609 -15.0293,4.74609 -11.07422,0 -16.61133,-6.59179 -5.27344,-6.32813 -6.06445,-20.83008 l -3.42774,-61.17188 v -4.74609 q 0,-12.65625 4.7461,-17.92969 5.00976,-5.27343 16.34765,-5.27343 15.82032,0 22.67578,22.67578 3.16407,11.33789 6.06446,17.13867 9.22851,18.45703 29.0039,28.47656 20.03907,10.01953 47.72461,10.01953 34.01368,0 55.10743,-16.08398 21.35742,-16.08399 21.35742,-41.13281 0,-20.83008 -13.1836,-33.48633 -12.91992,-12.65625 -37.96875,-16.34766 l -39.02343,-5.27344 q -54.58008,-7.64648 -79.62891,-28.74023 -25.04883,-21.09375 -25.04883,-59.32617 0,-40.3418 33.22266,-67.76367 33.48633,-27.42188 83.32031,-27.42188 14.50195,0 30.58594,3.95508 16.08398,3.6914 36.38672,11.86523 0.52734,-7.64648 4.21875,-10.54687 3.6914,-2.90039 12.65625,-2.90039 11.60156,0 16.08398,3.42773 4.48242,3.42774 5.53711,16.34766 l 3.69141,55.10742 v 2.63672 q 0,9.22851 -5.27344,14.50195 -5.27344,5.00977 -14.76563,5.00977 -13.97461,0 -21.62109,-19.51172 -3.69141,-11.07422 -7.38281,-16.61133 -8.70117,-13.18359 -25.04883,-20.30273 -16.34766,-7.11914 -37.17773,-7.11914 -31.9043,0 -51.94336,15.82031 -19.77539,15.82031 -19.77539,41.39648 0,20.03906 14.76562,31.64063 15.0293,11.60156 45.61523,15.82031 l 42.1875,5.27344 q 45.87891,6.06445 69.08204,28.21289 23.20312,21.88476 23.20312,59.32617 0,44.29687 -32.95898,71.19141 -32.95899,26.63086 -88.06641,26.63086 -18.98437,0 -37.70508,-4.48243 -18.7207,-4.48242 -39.81445,-13.97461 z"
         id="path3004" />
    </g>
    <g
       aria-label="Personal Social Web"
       id="text2929"
       style="font-size:50.6667px;font-family:Courier;-inkscape-font-specification:'Courier, Normal';display:inline;stroke-width:2.64604">
      <path
         d="m 241.82064,260.07949 6.62234,9.37635 3.77883,-2.66891 q 3.17261,-2.24075 3.92101,-4.52604 0.7484,-2.28528 -0.92145,-4.64958 -1.64132,-2.32388 -4.06552,-2.36841 -2.40399,-0.0588 -5.55638,2.16767 z m 17.08273,15.22419 q 0.99018,-0.69934 1.67737,-0.6698 0.67293,0.009 1.18673,0.73681 0.57089,0.8083 0.37489,1.43134 -0.196,0.62305 -1.38826,1.46511 l -9.88154,6.97915 q -0.68706,0.48526 -1.3077,0.37842 -0.63491,-0.12704 -1.13444,-0.83431 -0.49953,-0.70727 -0.39863,-1.29343 0.12111,-0.60043 0.86879,-1.1285 l 2.60679,-1.84113 -12.85933,-18.2071 -1.41454,0.99906 q -1.77827,1.25596 -2.43693,1.26684 -0.65272,-0.0236 -1.23788,-0.85212 -0.49953,-0.70727 -0.39269,-1.32791 0.0926,-0.64085 0.77962,-1.1261 l 9.35615,-6.60807 q 4.91046,-3.46817 8.79822,-3.36696 3.88776,0.10121 6.49959,3.79921 2.61183,3.69801 1.41319,7.36135 -1.19863,3.66335 -6.14951,7.16006 l -3.53634,2.49765 4.35305,6.16334 z"
         id="path2967" />
      <path
         d="m 272.93354,257.5624 q 2.03113,2.93345 4.92985,3.44846 2.90688,0.48099 6.17578,-1.52369 2.46749,-1.5132 4.576,-4.60557 2.09557,-3.11346 2.70717,-3.48853 0.63269,-0.388 1.30022,-0.24597 0.66753,0.14204 1.02967,0.73255 0.37506,0.6116 0.24258,1.38935 -0.13248,0.77776 -0.80514,1.85776 -1.47523,2.32673 -3.39556,4.25894 -1.89924,1.91927 -4.11365,3.27728 -4.80845,2.94881 -9.39201,1.95794 -4.5965,-1.01196 -7.40305,-5.58842 -2.85828,-4.66083 -1.57215,-9.42546 1.28613,-4.76463 6.20003,-7.77811 4.44992,-2.72895 9.03686,-1.82721 4.58694,0.90174 6.94082,4.74006 0.72427,1.18102 0.46385,1.89213 -0.23932,0.69817 -2.43265,2.04325 l -0.31635,0.194 z m -1.58882,-2.82741 13.72938,-8.41965 q -1.85542,-2.31567 -4.57925,-2.73479 -2.71567,-0.45314 -5.3097,1.13767 -2.80493,1.72014 -3.81875,4.37336 -1.01382,2.65322 -0.0217,5.64341 z"
         id="path2969" />
      <path
         d="m 308.12834,245.02106 7.27361,-3.81535 q 0.85443,-0.44819 1.44415,-0.2826 0.60013,0.13219 1.01384,0.92089 0.47118,0.89825 0.2607,1.45564 -0.20007,0.52399 -1.22977,1.06412 l -14.32814,7.51578 q -0.85443,0.44819 -1.49945,0.28368 -0.64503,-0.16452 -1.05874,-0.95322 -0.40222,-0.7668 -0.15942,-1.36908 0.26472,-0.61378 1.20678,-1.10794 l 3.81207,-1.99961 -7.36638,-14.04333 -1.48978,0.78146 q -2.12512,1.11472 -2.8233,1.06191 -0.70968,-0.0747 -1.18085,-0.97298 -0.40222,-0.7668 -0.18132,-1.35759 0.23131,-0.62419 1.10765,-1.08387 l 4.99513,-2.62018 q 0.59153,-0.31029 1.02466,-0.23018 0.42164,0.0582 0.65148,0.49636 l 1.95364,3.72444 q 0.71376,-3.69885 2.30379,-6.15321 1.59004,-2.45437 4.19715,-3.82192 1.94985,-1.02279 3.56853,-0.86615 1.61868,0.15664 2.27372,1.40543 0.42521,0.81061 0.14504,1.76773 -0.26975,0.92372 -0.99273,1.30296 -0.5039,0.26432 -2.05362,0.23912 -1.53931,-0.0586 -2.48138,0.43557 -1.70886,0.89638 -2.97134,3.12306 -1.25207,2.19328 -2.17342,6.02895 z"
         id="path2971" />
      <path
         d="m 328.69216,236.50226 -1.77212,-4.03135 q -0.43805,-0.99651 -0.26484,-1.58611 0.19586,-0.59956 1.03383,-0.96792 0.92857,-0.40818 2.02964,0.62117 0.70086,0.61074 1.16453,0.86633 1.48883,0.80485 3.6745,0.73587 2.17572,-0.0916 4.41787,-1.07725 2.40069,-1.05531 3.42206,-2.66634 1.02138,-1.61103 0.32448,-3.19639 -0.70685,-1.608 -2.18322,-1.76975 -1.45372,-0.17169 -4.28472,1.07277 l -1.24564,0.54756 q -4.62019,2.03097 -7.75038,1.48822 -3.13019,-0.54274 -4.47421,-3.60022 -1.31416,-2.98954 0.31447,-5.67824 1.65127,-2.69865 5.93174,-4.58028 1.7439,-0.76659 3.77476,-1.06479 2.02091,-0.32085 2.1115,-0.36067 0.24913,-0.10951 0.76206,-0.84845 0.50297,-0.76159 1.18241,-1.06026 0.77004,-0.33849 1.3813,0.0684 0.63391,0.39696 1.13169,1.52936 l 1.16482,2.64981 q 0.52765,1.20035 0.40422,1.90319 -0.13339,0.68019 -0.92607,1.02864 -0.67944,0.29867 -2.18369,-0.41832 -1.05054,-0.48405 -1.6827,-0.6926 -1.68817,-0.5821 -3.25612,-0.46037 -1.57791,0.0991 -3.41239,0.9055 -2.12892,0.93584 -3.02436,2.46448 -0.88275,1.49605 -0.24559,2.94552 0.62721,1.42682 2.23225,1.45093 1.60504,0.0241 6.06122,-1.82666 4.76056,-1.95755 7.61175,-1.37323 2.84124,0.56166 4.245,3.75503 1.34402,3.05748 -0.25026,5.94727 -1.59427,2.8898 -5.67091,4.68182 -1.29093,0.56748 -2.98581,1.01525 -1.68491,0.47042 -4.33449,0.95953 -0.5637,0.86935 -1.02039,1.36737 -0.44673,0.52067 -0.83175,0.68992 -0.79268,0.34845 -1.46192,-0.006 -0.65656,-0.38699 -1.11452,-1.4288 z"
         id="path2973" />
      <path
         d="m 366.56511,219.86319 q 3.58713,-1.28368 5.0613,-4.35999 1.48913,-3.10794 0.23046,-6.62519 -1.25867,-3.51725 -4.38157,-4.97475 -3.13123,-1.48079 -6.69507,-0.20545 -3.56384,1.27535 -5.04463,4.40658 -1.46583,3.0996 -0.20716,6.61685 1.26701,3.54055 4.35827,4.98309 3.09127,1.44254 6.6784,0.15886 z m 9.34475,-12.43557 q 1.78381,4.98471 -0.48334,9.36956 -2.26715,4.38485 -7.69443,6.32704 -5.40399,1.93385 -9.93841,-0.017 -4.53442,-1.95087 -6.31823,-6.93558 -1.78381,-4.98471 0.49167,-9.34627 2.26715,-4.38484 7.67114,-6.31869 5.40398,-1.93386 9.93841,0.017 4.55771,1.94252 6.33319,6.90394 z"
         id="path2975" />
      <path
         d="m 386.68999,212.43969 -4.26007,-15.27516 -0.45277,0.12628 q -1.62046,0.45192 -2.34638,0.24344 -0.70209,-0.21514 -0.96793,-1.16835 -0.2459,-0.88171 0.1482,-1.40256 0.38745,-0.54468 1.50747,-0.85704 l 1.12002,-0.31236 2.2877,-0.63802 q 0.64342,-0.17944 1.07398,-0.017 0.43055,0.16245 0.55683,0.61522 l 0.45193,1.62045 q 1.28767,-2.10561 2.76695,-3.34004 1.49645,-1.26491 3.33138,-1.77665 3.59836,-1.00354 6.27248,0.66495 2.69795,1.66183 3.80118,5.61765 l 3.01063,10.79508 1.12002,-0.31236 q 1.19151,-0.3323 1.82876,-0.0734 0.6306,0.23508 0.86985,1.09296 0.2592,0.92938 -0.19975,1.494 -0.44175,0.53414 -1.87157,0.9329 l -5.26647,1.46876 q -1.52514,0.42534 -2.05377,0.18752 -0.52863,-0.23783 -0.80776,-1.2387 -0.2592,-0.92938 0.14155,-1.42639 0.40074,-0.49702 1.78289,-0.88249 l 0.83406,-0.23261 -2.76473,-9.91336 q -0.77758,-2.78814 -2.44598,-3.88954 -1.67505,-1.12524 -4.0819,-0.454 -2.43069,0.67789 -3.83087,2.84056 -1.40018,2.16268 -0.72229,4.59336 l 2.76473,9.91336 0.83405,-0.23261 q 1.42982,-0.39876 2.02994,-0.18087 0.60012,0.21789 0.85932,1.14727 0.27913,1.00087 -0.0501,1.47795 -0.32925,0.47708 -1.99736,0.9423 l -4.3371,1.20956 -1.28683,0.35889 q -0.97704,0.27248 -1.59046,0.007 -0.59623,-0.29602 -0.84213,-1.17774 -0.26584,-0.95321 0.18921,-1.43969 0.47224,-0.51695 2.09269,-0.96888 z"
         id="path2977" />
      <path
         d="m 429.26422,194.41741 q -1.42195,-0.16676 -2.72211,-0.10574 -1.28082,0.0319 -2.5175,0.28198 -3.7343,0.75522 -5.63742,2.45261 -1.90312,1.69739 -1.47157,3.83127 0.33348,1.64891 1.88293,2.44613 1.5737,0.79232 3.65909,0.37057 3.07958,-0.62281 5.37477,-2.75286 2.31454,-2.1592 1.96145,-3.90511 z m 1.73876,7.5991 q -1.62549,2.19653 -3.78636,3.61792 -2.13661,1.41648 -4.60998,1.9167 -3.61305,0.7307 -6.25096,-0.83077 -2.61367,-1.56638 -3.2659,-4.79145 -0.77484,-3.83129 1.7326,-6.53431 2.53169,-2.70793 7.8664,-3.78682 1.40642,-0.28443 2.87632,-0.37978 1.465,-0.1196 3.04689,-0.0357 l -0.0343,-0.16974 q -0.56397,-2.7886 -2.16737,-3.85255 -1.60339,-1.06396 -4.41624,-0.49509 -1.8914,0.38252 -4.0133,1.87175 -2.1219,1.48923 -2.87361,1.64125 -0.70321,0.14222 -1.27673,-0.32232 -0.57842,-0.48879 -0.75987,-1.38599 -0.28934,-1.43068 2.17695,-2.96432 2.49054,-1.53854 6.66131,-2.38203 4.26776,-0.86311 6.89151,0.87791 2.61884,1.71676 3.47704,5.96028 l 2.22153,10.98465 1.18818,-0.2403 q 1.72166,-0.34818 2.37719,-0.10215 0.65553,0.24604 0.84679,1.19173 0.17654,0.87296 -0.22016,1.40751 -0.3967,0.53456 -1.36665,0.73072 l -3.80704,0.76993 q -0.67896,0.13732 -1.19881,-0.18664 -0.51984,-0.32395 -0.82226,-1.07049 z"
         id="path2979" />
      <path
         d="m 450.75368,172.90389 -4.17196,0.53188 q -2.38048,0.30348 -3.04093,0.0136 -0.63904,-0.31757 -0.76732,-1.32375 -0.11263,-0.88347 0.32187,-1.38778 0.45905,-0.50744 1.41615,-0.62946 l 8.09852,-1.03246 q 0.6626,-0.0845 1.06513,0.13855 0.40253,0.22302 0.46198,0.6893 l 3.52601,27.65767 7.70586,-0.9824 q 0.93256,-0.11889 1.40294,0.24512 0.4918,0.33634 0.60443,1.21981 0.12827,1.00618 -0.23886,1.45202 -0.37027,0.42131 -1.5237,0.56835 l -18.11123,2.30896 q -0.9571,0.12202 -1.52878,-0.25402 -0.54713,-0.37916 -0.65976,-1.26264 -0.10951,-0.85893 0.35267,-1.34183 0.46217,-0.4829 1.49289,-0.6143 l 6.79785,-0.86664 z"
         id="path2981" />
      <path
         d="m 509.50291,196.9935 q -0.14363,1.11089 -0.59641,1.52341 -0.45322,0.43726 -1.41791,0.41997 -1.0389,-0.0186 -1.54726,-0.64633 -0.48407,-0.60252 -0.53389,-1.96431 l -0.21868,-5.74443 0.008,-0.44524 q 0.0213,-1.18731 0.4754,-1.67404 0.47884,-0.48629 1.54247,-0.46722 1.48414,0.0266 2.08913,2.1654 0.27776,1.06895 0.5401,1.61801 0.8347,1.74701 2.67302,2.72023 1.86306,0.97365 4.4603,1.02021 3.1909,0.0572 5.1968,-1.41619 2.03063,-1.47295 2.07276,-3.82284 0.035,-1.95411 -1.18047,-3.16359 -1.19076,-1.20904 -3.53443,-1.59747 l -3.65201,-0.56034 q -5.10741,-0.80913 -7.42182,-2.8301 -2.31441,-2.02098 -2.25011,-5.60765 0.0679,-3.78455 3.23066,-6.30118 3.18754,-2.51619 7.86257,-2.43238 1.36046,0.0244 2.86268,0.42248 1.50267,0.37335 3.39356,1.1743 0.0623,-0.71645 0.41351,-0.98233 0.35118,-0.26589 1.19219,-0.25081 1.08837,0.0195 1.50311,0.34861 0.41474,0.32911 0.49195,1.54292 l 0.25362,5.17596 -0.004,0.24735 q -0.0155,0.86575 -0.51911,1.3516 -0.50313,0.4611 -1.39362,0.44514 -1.31098,-0.0235 -1.9955,-1.8668 -0.32768,-1.0451 -0.66466,-1.57076 -0.79411,-1.25141 -2.31574,-1.94677 -1.52164,-0.69536 -3.47575,-0.73039 -2.99301,-0.0537 -4.89953,1.39678 -1.88178,1.45088 -1.92479,3.85024 -0.0337,1.8799 1.33198,2.9931 1.39042,1.11365 4.25266,1.56086 l 3.94883,0.56566 q 4.2938,0.64608 6.43328,2.76289 2.13993,2.09208 2.07697,5.60454 -0.0745,4.15559 -3.21169,6.62319 -3.13674,2.44287 -8.30648,2.35019 -1.78097,-0.0319 -3.52966,-0.48392 -1.74869,-0.45199 -3.71158,-1.37795 z"
         id="path2983" />
      <path
         d="m 547.31825,196.7846 q 3.79477,0.33915 6.42325,-1.83525 2.65532,-2.19683 2.98786,-5.91768 0.33255,-3.72084 -1.89113,-6.35372 -2.22147,-2.65753 -5.9916,-2.99447 -3.77013,-0.33695 -6.42766,1.88452 -2.63067,2.19903 -2.96322,5.91988 -0.33474,3.74549 1.86649,6.35153 2.20124,2.60604 5.99601,2.94519 z m 13.69871,-7.36973 q -0.47128,5.27326 -4.36843,8.30295 -3.89715,3.0297 -9.6386,2.51657 -5.7168,-0.51093 -9.01493,-4.18369 -3.29813,-3.67276 -2.82685,-8.94601 0.47129,-5.27326 4.36624,-8.27831 3.89715,-3.0297 9.61395,-2.51877 5.7168,0.51092 9.01493,4.18368 3.32278,3.67497 2.85369,8.92358 z"
         id="path2985" />
      <path
         d="m 587.96902,183.46163 0.0157,-0.0977 q 0.12937,-0.80609 0.65229,-1.09801 0.52684,-0.31634 1.50392,-0.15953 1.00151,0.16074 1.27382,0.80579 0.29675,0.64898 0.003,2.481 l -0.7292,4.54342 q -0.14506,0.9038 -0.68366,1.29343 -0.53468,0.3652 -1.4629,0.21622 -0.65953,-0.10585 -1.08927,-0.55066 -0.40138,-0.46532 -0.89324,-1.77202 -0.85494,-2.16676 -2.37967,-3.43878 -1.49637,-1.29252 -3.67038,-1.64144 -3.81061,-0.61158 -6.56513,1.2515 -2.7301,1.867 -3.30248,5.43334 -0.58414,3.63963 1.31513,6.32479 1.92762,2.66466 5.51839,3.24096 1.6366,0.26266 3.17279,0.0582 1.56454,-0.22496 3.02865,-0.91706 0.51116,-0.21864 1.39083,-0.70386 1.79554,-1.0398 2.69934,-0.89475 0.75723,0.12154 1.14294,0.68456 0.41405,0.54253 0.29252,1.29976 -0.30971,1.92974 -4.29916,3.36911 -3.9611,1.41887 -8.06483,0.76025 -5.30066,-0.85074 -8.29763,-4.81455 -2.97255,-3.95989 -2.15711,-9.0407 0.81545,-5.08082 4.87787,-7.91163 4.06635,-2.85524 9.34258,-2.00843 1.85645,0.29795 3.63057,1.10887 1.80248,0.79041 3.73462,2.17793 z"
         id="path2987" />
      <path
         d="m 611.61092,179.50991 q 0.60307,-2.60293 1.21734,-3.17167 0.63837,-0.56315 2.18085,-0.20578 1.49427,0.3462 1.84228,1.03631 0.3536,0.66601 -0.13779,2.78691 -0.48022,2.0727 -1.0554,2.47273 -0.5455,0.38152 -2.11208,0.0186 -1.54247,-0.35737 -1.9184,-0.92697 -0.35183,-0.56402 -0.0168,-2.01009 z m -1.52165,26.84541 7.73648,1.79244 q 0.93995,0.21777 1.27884,0.728 0.36858,0.49171 0.16756,1.35936 -0.22894,0.98814 -0.7521,1.27325 -0.49348,0.26659 -1.62624,0.004 l -18.70253,-4.33312 q -0.96404,-0.22336 -1.34556,-0.76886 -0.38151,-0.5455 -0.18049,-1.41314 0.19544,-0.84354 0.79649,-1.136 0.60105,-0.29246 1.6133,-0.0579 l 7.35087,1.70309 3.57929,-15.44886 -4.69974,-1.08887 q -0.98814,-0.22894 -1.41786,-0.78561 -0.40003,-0.57518 -0.20459,-1.41872 0.19543,-0.84355 0.77238,-1.14159 0.58254,-0.32214 1.54659,-0.0988 l 7.06165,1.63608 q 0.65073,0.15077 0.95082,0.49964 0.3242,0.35446 0.21811,0.81238 z"
         id="path2989" />
      <path
         d="m 644.85794,208.21749 q -1.17282,-0.82112 -2.34644,-1.38395 -1.14275,-0.57933 -2.35014,-0.94559 -3.64585,-1.10595 -6.1263,-0.51405 -2.48046,0.59191 -3.11243,2.67525 -0.48835,1.60986 0.49775,3.04651 1.00978,1.44384 3.04577,2.06145 3.00664,0.91205 6.03745,0.12515 3.06166,-0.80339 3.57873,-2.50794 z m -2.07279,7.51486 q -2.47273,1.16302 -5.04922,1.38971 -2.55281,0.23387 -4.96759,-0.49865 -3.52748,-1.07004 -5.10945,-3.69571 -1.55829,-2.61849 -0.60315,-5.76718 1.13468,-3.74054 4.62407,-4.93124 3.51306,-1.18352 8.72141,0.39642 1.37311,0.41653 2.71244,1.02963 1.34652,0.58943 2.69942,1.41348 l 0.0503,-0.16572 q 0.82588,-2.72255 -0.0812,-4.41962 -0.9071,-1.69707 -3.65332,-2.53013 -1.8466,-0.56016 -4.42096,-0.25527 -2.57436,0.3049 -3.30826,0.0823 -0.68656,-0.20826 -0.97119,-0.88922 -0.27746,-0.70463 -0.0117,-1.58058 0.42371,-1.39679 3.32233,-1.57747 2.92229,-0.17349 6.99427,1.06173 4.16668,1.26395 5.65103,4.04098 1.49154,2.75335 0.23477,6.89635 l -3.25324,10.72447 1.16004,0.35189 q 1.68088,0.50989 2.14134,1.03737 0.46046,0.52747 0.18038,1.45076 -0.25853,0.85228 -0.86129,1.13479 -0.60275,0.2825 -1.54972,-0.005 l -3.71687,-1.1275 q -0.66288,-0.20108 -0.96693,-0.73281 -0.30406,-0.53173 -0.21629,-1.3324 z"
         id="path2991" />
      <path
         d="m 673.80389,199.29703 -3.93679,-1.4798 q -2.24629,-0.84436 -2.69466,-1.40934 -0.41651,-0.57944 -0.0596,-1.5289 0.31337,-0.83368 0.93321,-1.07642 0.643,-0.23404 1.54614,0.10545 l 7.64202,2.87256 q 0.62526,0.23502 0.87687,0.62033 0.25161,0.3853 0.0862,0.8253 l -9.81023,26.09864 7.2715,2.73328 q 0.87999,0.33078 1.12569,0.87244 0.27756,0.52721 -0.0358,1.36088 -0.3569,0.94947 -0.88985,1.17201 -0.52425,0.19938 -1.61266,-0.20974 l -17.09033,-6.42409 q -0.90314,-0.33948 -1.23277,-0.93912 -0.30647,-0.59093 0.007,-1.4246 0.30467,-0.81052 0.93896,-1.0214 0.63429,-0.21088 1.60691,0.15472 l 6.41466,2.41121 z"
         id="path2993" />
      <path
         d="m 717.93999,243.19501 10.64771,-11.11772 q 0.56531,-0.59728 0.89827,-0.64592 0.36637,-0.059 1.0234,0.28616 l 0.98554,0.51778 q 0.63513,0.33368 0.79439,0.66886 0.18116,0.34669 0.0676,1.04158 l -2.65607,15.42812 11.29377,-16.28368 -3.43846,-1.80649 q -1.00745,-0.52928 -1.30517,-1.13284 -0.27582,-0.59204 0.1269,-1.35858 0.43724,-0.83224 1.04785,-0.93063 0.63251,-0.0869 1.85897,0.55747 l 7.07402,3.71652 q 0.48183,0.25314 0.62402,0.88676 0.1537,0.61173 -0.17998,1.24686 -0.39122,0.74463 -1.00294,0.89833 -0.60022,0.1318 -1.43246,-0.30544 l -0.26281,-0.13808 -14.6162,20.26712 q -0.42239,0.64441 -0.73456,0.75986 -0.29027,0.12696 -0.70639,-0.0916 l -1.55497,-0.81695 q -0.50373,-0.26464 -0.66298,-0.59983 -0.15926,-0.33518 -0.0687,-0.98626 l 3.16378,-17.56475 -12.1443,12.90249 q -0.44097,0.46699 -0.77393,0.51562 -0.33296,0.0486 -0.88049,-0.23901 l -1.64257,-0.86297 q -0.43802,-0.23013 -0.55347,-0.5423 -0.082,-0.32256 0.22156,-1.11322 l 8.15428,-23.60615 -0.26281,-0.13808 q -0.85414,-0.44874 -1.09655,-1.05119 -0.22051,-0.59093 0.15919,-1.31366 0.34519,-0.65703 0.91423,-0.88905 0.56903,-0.23202 1.07275,0.0326 l 7.09593,3.72803 q 1.20455,0.63284 1.46998,1.19148 0.28733,0.57015 -0.14991,1.40239 -0.40272,0.76653 -1.06864,0.86381 -0.64402,0.10878 -1.62957,-0.409 l -3.08804,-1.62238 z"
         id="path2995" />
      <path
         d="m 745.30608,253.52996 q -1.67074,3.15265 -0.79496,5.9635 0.90974,2.80244 4.19318,4.78321 2.47847,1.49516 6.1941,1.94531 3.72841,0.42897 4.34273,0.79956 0.63551,0.38338 0.81637,1.04145 0.18087,0.65807 -0.17695,1.25121 -0.3706,0.61432 -1.12215,0.85436 -0.75155,0.24004 -2.01992,0.13942 -2.74452,-0.23993 -5.34342,-1.05653 -2.57771,-0.80382 -4.80197,-2.14563 -4.82984,-2.91366 -6.05791,-7.43944 -1.21528,-4.54697 1.5578,-9.14379 2.8242,-4.68155 7.64655,-5.73071 4.82235,-1.04916 9.75811,1.92839 4.46972,2.69641 5.77849,7.1842 1.30877,4.48779 -1.01704,8.34319 -0.71564,1.18628 -1.46685,1.28206 -0.73002,0.10857 -2.9331,-1.22047 l -0.31776,-0.19169 z m 1.77999,-2.71114 13.79045,8.31924 q 1.20297,-2.71252 0.32247,-5.32396 -0.84653,-2.61985 -3.4521,-4.19169 -2.8174,-1.69963 -5.63964,-1.37969 -2.82224,0.31994 -5.02118,2.5761 z"
         id="path2997" />
      <path
         d="m 775.73736,281.06536 q 2.87911,1.96947 5.91915,1.38133 3.04004,-0.58814 5.02348,-3.48767 1.94153,-2.83828 1.36091,-5.93312 -0.5602,-3.08087 -3.37806,-5.00844 -2.83828,-1.94154 -5.9127,-1.34695 -3.04004,0.58814 -4.99554,3.44684 -1.95551,2.85869 -1.41572,5.9256 0.5602,3.08088 3.39848,5.02241 z m 2.58261,-17.44672 q 2.12123,-0.64715 4.35326,-0.22936 2.23203,0.41779 4.39647,1.89839 4.10427,2.80754 4.94081,7.45626 0.85052,4.6283 -1.94306,8.71215 -2.75167,4.02259 -7.48313,4.89246 -4.71104,0.88384 -8.75405,-1.88181 -2.14402,-1.46662 -3.21991,-3.31163 -1.07589,-1.84501 -1.04926,-4.07485 l -1.11743,1.63354 q -0.37714,0.55132 -0.74894,0.65668 -0.35139,0.11932 -0.80061,-0.18798 l -3.73673,-2.55612 q -0.79635,-0.54475 -0.93289,-1.17769 -0.13655,-0.63293 0.3663,-1.36802 0.55871,-0.81677 1.22391,-0.78138 0.67916,0.015 2.06767,0.96479 l 0.4288,0.29332 14.30312,-20.90931 -0.38797,-0.26539 q -1.38851,-0.94982 -1.6755,-1.62573 -0.287,-0.6759 0.27172,-1.49267 0.50284,-0.73509 1.16265,-0.82328 0.6598,-0.0882 1.45615,0.45656 l 3.10373,2.12311 q 0.61258,0.41904 0.73835,0.80482 0.14619,0.39974 -0.14713,0.82854 z"
         id="path2999" />
    </g>
    <g
       aria-label="Seppo.Social"
       transform="translate(11.20465)"
       id="text2933"
       style="font-weight:bold;font-size:69.3333px;font-family:Courier;-inkscape-font-specification:'Courier, Bold';display:inline;stroke-width:5.0257"
       inkscape:label="text6">
      <path
         d="m 307.2137,770.44231 q 1.00153,-0.65454 1.76227,-0.66194 0.76074,-0.007 1.88385,0.68676 1.67027,1.03233 1.73946,1.95066 0.11578,0.90733 -0.96575,2.78598 l -3.30217,5.60035 -0.19579,0.31678 q -1.05013,1.69906 -2.16845,1.96303 -1.07171,0.25298 -2.68438,-0.74376 -2.04464,-1.26371 -1.69985,-4.07529 0.0518,-0.40577 0.09,-0.66075 0.2108,-2.33722 -0.76372,-4.17328 -0.95671,-1.86487 -3.03015,-3.14638 -2.59179,-1.60189 -4.95201,-1.38912 -2.31362,0.20177 -3.47054,2.07362 -1.63749,2.64938 4.73378,8.69656 1.07811,1.02452 1.70906,1.61348 4.78161,4.62687 5.72751,8.63417 0.9459,4.0073 -1.70612,8.29815 -3.27498,5.29877 -8.65457,5.95369 -5.36179,0.62612 -12.07165,-3.521 -2.62059,-1.61969 -4.48043,-3.24678 -1.83105,-1.60928 -3.31553,-3.52174 -0.92353,0.46395 -1.72407,0.40695 -0.81833,-0.0282 -1.88385,-0.68675 -1.81425,-1.12133 -2.10702,-2.25744 -0.29277,-1.13612 0.76416,-2.91057 l 4.06752,-6.83865 0.19579,-0.31678 q 1.17472,-1.90064 2.32864,-2.22221 1.18271,-0.30377 2.93936,0.78195 1.87185,1.15693 1.46586,4.64706 -0.12139,0.84033 -0.16219,1.29269 -0.2474,2.91158 1.06329,5.23401 1.33948,2.34023 4.24804,4.1379 2.64939,1.63749 4.79443,1.45092 2.14503,-0.18657 3.37315,-2.17361 1.90447,-3.08135 -3.76886,-8.77675 -1.70226,-1.68888 -2.65838,-2.7176 -4.67901,-4.92165 -5.48613,-8.44519 -0.78931,-3.55233 1.57793,-7.38242 3.04359,-4.9244 8.65196,-5.7563 5.65497,-0.84291 11.5297,2.78805 1.95824,1.21032 3.58091,2.77041 1.65146,1.57789 3.02494,3.54114 z"
         id="path2942" />
      <path
         d="m 313.28944,802.60831 q -0.73208,3.78945 0.79364,6.51254 1.55662,2.73692 5.3881,4.4522 3.83149,1.71528 8.40026,1.53512 4.58259,-0.21105 5.35507,0.13477 1.14327,0.51182 1.46662,1.69515 0.36809,1.16627 -0.22672,2.49493 -1.3003,2.90451 -6.53591,3.08287 -5.23561,0.17836 -11.56993,-2.65739 -7.47757,-3.34757 -10.29296,-9.65245 -2.78448,-6.29105 0.17577,-12.90346 2.94642,-6.5815 9.49346,-8.695 6.57794,-2.09967 14.05551,1.2479 6.67421,2.98791 9.29126,8.90727 2.63089,5.88846 0.0718,11.60479 -0.81614,1.82305 -2.01654,2.10167 -1.1695,0.29246 -3.91951,-0.93867 z m 18.81254,2.63569 q 0.76118,-3.10877 -0.72718,-5.66677 -1.45745,-2.54415 -4.94905,-4.10728 -3.368,-1.50779 -6.11605,-0.92054 -2.70332,0.57019 -4.86233,3.23864 z"
         id="path2944" />
      <path
         d="m 349.83442,828.62456 -2.82213,8.76521 4.09258,1.31769 q 2.1913,0.70553 2.85607,1.84427 0.69698,1.14912 0.0848,3.05039 -0.60178,1.86906 -1.79569,2.37379 -1.19391,0.50474 -3.41744,-0.21117 l -13.66342,-4.3992 q -2.22352,-0.71591 -2.86644,-1.81205 -0.65329,-1.06391 -0.0411,-2.96519 0.61215,-1.90127 1.78421,-2.44861 1.20429,-0.53696 3.39559,0.16857 l 1.90128,0.61215 9.16155,-28.45471 -0.5156,-0.166 q -1.70793,-0.5499 -2.31972,-1.74272 -0.61179,-1.19281 -0.0515,-2.93296 0.61215,-1.90128 1.77384,-2.41639 1.16169,-0.51512 3.38522,0.20079 l 4.96265,1.59783 q 0.93453,0.30088 1.27155,0.80062 0.34739,0.4675 0.13988,1.112 l -0.74703,2.32021 q 2.34901,-1.66216 5.02198,-2.01077 2.71557,-0.37047 5.64804,0.5737 6.60614,2.12697 9.59733,7.74914 2.99119,5.62217 0.92647,12.03495 -2.1581,6.70281 -7.80102,9.75845 -5.63254,3.02342 -12.04532,0.9587 -2.61023,-0.84042 -4.66995,-2.28602 -2.01711,-1.46746 -3.24667,-3.39267 z m 14.09466,-18.25951 q -3.19028,-1.02717 -6.01009,0.66123 -2.81981,1.68839 -4.00261,5.36205 -1.18281,3.67365 0.12218,6.69011 1.305,3.01646 4.49527,4.04363 3.19028,1.02717 6.0101,-0.66122 2.86241,-1.71025 4.03484,-5.35168 1.1828,-3.67365 -0.12219,-6.69011 -1.30499,-3.01646 -4.5275,-4.05401 z"
         id="path2946" />
      <path
         d="m 389.54914,839.94048 -1.98512,8.99181 4.19838,0.92687 q 2.24795,0.49628 3.01689,1.56744 0.80199,1.07846 0.37139,3.02889 -0.4233,1.91737 -1.56444,2.53218 -1.14114,0.6148 -3.42215,0.11122 l -14.01664,-3.09445 q -2.28101,-0.50358 -3.02418,-1.53438 -0.75047,-0.99775 -0.31988,-2.94818 0.4306,-1.95043 1.54598,-2.60559 1.14844,-0.64786 3.39639,-0.15158 l 1.95043,0.4306 6.44434,-29.19032 -0.52893,-0.11677 q -1.75208,-0.38681 -2.47335,-1.51679 -0.72128,-1.12997 -0.32718,-2.91511 0.4306,-1.95043 1.53868,-2.57253 1.10809,-0.62211 3.3891,-0.11853 l 5.09095,1.12393 q 0.95868,0.21165 1.34122,0.67746 0.38983,0.43276 0.24386,1.09392 l -0.52547,2.38019 q 2.18224,-1.87574 4.81057,-2.47425 2.66868,-0.62426 5.67697,0.0399 6.77691,1.49614 10.28369,6.81201 3.50678,5.31588 2.05443,11.89444 -1.51804,6.87609 -6.84851,10.44899 -5.32317,3.53983 -11.90174,2.08748 -2.67771,-0.59116 -4.86427,-1.83661 -2.14621,-1.27121 -3.55141,-3.07222 z m 12.3146,-19.50436 q -3.27276,-0.72253 -5.92125,1.22363 -2.64849,1.94616 -3.48049,5.71478 -0.832,3.76863 0.75095,6.64896 1.58295,2.88033 4.8557,3.60285 3.27276,0.72253 5.92125,-1.22363 2.68885,-1.97191 3.51355,-5.70748 0.832,-3.76863 -0.75095,-6.64896 -1.58295,-2.88033 -4.88876,-3.61015 z"
         id="path2948" />
      <path
         d="m 439.40291,826.97623 q -3.9261,-0.52418 -6.82135,1.71918 -2.85722,2.21428 -3.39035,6.20749 -0.53761,4.02677 1.62519,7.01373 2.20084,2.95789 6.12694,3.48206 3.9261,0.52417 6.82583,-1.75274 2.90421,-2.31047 3.44183,-6.33724 0.53313,-3.99321 -1.67667,-6.88398 -2.17177,-2.91985 -6.13142,-3.4485 z m 0.9453,-7.08041 q 8.1542,1.08867 12.61193,6.32883 4.45772,5.24017 3.50346,12.38768 -0.95874,7.18107 -6.63505,11.06825 -5.67631,3.88717 -13.83051,2.79851 -8.12065,-1.08418 -12.57838,-6.32435 -4.45772,-5.24016 -3.49898,-12.42123 0.95426,-7.14751 6.63057,-11.03469 5.70987,-3.8827 13.79696,-2.803 z"
         id="path2950" />
      <path
         d="m 478.18622,843.25746 q 3.17768,0.17119 5.00987,2.03287 1.866,1.86349 1.71302,4.70312 -0.15116,2.80583 -2.20838,4.49187 -2.0216,1.65406 -5.19928,1.48287 -3.11007,-0.16755 -4.97607,-2.03104 -1.86417,-1.89731 -1.71301,-4.70313 0.15116,-2.80583 2.20656,-4.45806 2.05722,-1.68605 5.16729,-1.5185 z"
         id="path2952" />
      <path
         d="m 526.69661,816.58948 q 0.48338,-1.09446 1.11733,-1.51504 0.63395,-0.42058 1.95393,-0.4502 1.96305,-0.0441 2.52129,0.68839 0.59133,0.69784 0.70764,2.86244 l 0.28123,6.49532 0.008,0.3723 q 0.0448,1.9969 -0.74925,2.82742 -0.76097,0.79592 -2.65633,0.83846 -2.40304,0.0539 -3.64537,-2.49174 -0.17758,-0.36851 -0.28444,-0.60315 -1.09631,-2.07488 -2.91368,-3.08383 -1.81812,-1.0428 -4.25501,-0.9881 -3.04611,0.0684 -4.90956,1.53242 -1.83036,1.42945 -1.78098,3.62942 0.0699,3.1138 8.70694,4.71466 1.46219,0.27195 2.31213,0.42219 6.53027,1.27566 9.50632,4.12106 2.97606,2.84539 3.08924,7.88839 0.13978,6.22759 -4.01496,9.70711 -4.1555,3.44567 -12.04153,3.62267 -3.07995,0.0691 -5.52595,-0.28232 -2.41216,-0.35222 -4.69881,-1.14746 -0.52177,0.89214 -1.22418,1.2804 -0.70164,0.4221 -1.95393,0.4502 -2.13227,0.0479 -2.99664,-0.74544 -0.86438,-0.79331 -0.94456,-2.85713 l -0.3139,-7.95068 -0.008,-0.37231 q -0.0501,-2.23381 0.74241,-3.13202 0.82639,-0.89898 2.89097,-0.94532 2.19997,-0.0494 3.76058,3.09869 0.35593,0.77085 0.56812,1.17244 1.37847,2.57649 3.74269,3.8102 2.39806,1.23296 5.81647,1.15624 3.1138,-0.0699 4.81106,-1.39477 1.69726,-1.32487 1.64484,-3.66022 -0.0813,-3.62148 -7.9414,-5.30751 -2.3475,-0.48912 -3.70969,-0.83103 -6.60479,-1.57876 -9.20094,-4.09405 -2.59692,-2.54914 -2.69795,-7.05061 -0.1299,-5.7876 4.1203,-9.54016 4.28328,-3.78717 11.18779,-3.94214 2.3015,-0.0517 4.5121,0.37281 2.24445,0.4237 4.46568,1.322 z"
         id="path2954" />
      <path
         d="m 558.19237,828.87167 q -3.94173,0.38959 -6.24577,3.23679 -2.27368,2.81018 -1.87742,6.81929 0.39958,4.0428 3.18939,6.45457 2.82016,2.37475 6.76189,1.98515 3.94173,-0.38959 6.24244,-3.27048 2.29738,-2.91458 1.8978,-6.95737 -0.39625,-4.00911 -3.20976,-6.31648 -2.78315,-2.34439 -6.75857,-1.95147 z m -0.7026,-7.10859 q 8.18667,-0.80915 13.72672,3.26988 5.54005,4.07903 6.24931,11.25499 0.71259,7.20966 -3.92174,12.29431 -4.63433,5.08465 -12.821,5.8938 -8.15297,0.80583 -13.69302,-3.2732 -5.54005,-4.07903 -6.25264,-11.28869 -0.70926,-7.17597 3.92507,-12.26062 4.66801,-5.08797 12.7873,-5.89047 z"
         id="path2956" />
      <path
         d="m 606.5701,817.18578 q 0.168,-1.37114 0.8882,-2.15304 0.74758,-0.82118 2.08069,-1.05906 1.7997,-0.32113 2.76248,0.6419 0.95684,0.92971 1.4326,3.59593 l 0.9753,5.46574 q 0.36276,2.033 -0.29797,3.14817 -0.66073,1.11518 -2.39377,1.42442 -1.23313,0.22004 -2.16742,-0.19786 -0.93429,-0.4179 -2.15292,-1.85111 -1.7375,-2.02841 -4.09411,-2.70834 -2.36255,-0.71327 -5.49535,-0.15425 -3.89935,0.69579 -5.94101,3.70804 -2.01428,2.97299 -1.3066,6.93898 0.74337,4.16597 3.76157,6.24096 3.01821,2.07499 7.35081,1.30189 3.93267,-0.70174 7.41214,-3.55789 3.50684,-2.89542 4.37336,-3.05004 1.23313,-0.22004 2.20546,0.60374 0.9997,0.7845 1.25542,2.21759 0.55902,3.13281 -3.76677,6.44948 -4.29247,3.31071 -10.8247,4.47632 -8.06531,1.43916 -13.93991,-2.18948 -5.84127,-3.63458 -7.11392,-10.76671 -1.24291,-6.9655 2.92962,-12.49009 4.17253,-5.5246 11.77126,-6.8805 2.56623,-0.45792 5.11215,-0.25882 2.54591,0.1991 5.18339,1.10403 z"
         id="path2958" />
      <path
         d="m 645.15098,830.61335 7.03648,-1.86188 q 2.25822,-0.59753 3.42382,-0.0305 1.1656,0.56706 1.66788,2.46527 0.51093,1.93095 -0.24574,3.04167 -0.72395,1.10206 -2.94944,1.69093 l -22.124,5.85409 q -2.2255,0.58888 -3.43249,-0.002 -1.17426,-0.59979 -1.68519,-2.53073 -0.50228,-1.89821 0.1976,-2.95888 0.73261,-1.06934 3.02356,-1.67553 l 7.03648,-1.86188 -4.20871,-15.90571 -3.69825,0.97857 q -2.19276,0.58021 -3.35836,0.0131 -1.17427,-0.59978 -1.6852,-2.53073 -0.51094,-1.93094 0.18894,-2.99161 0.69989,-1.06067 2.9581,-1.6582 l 9.85108,-2.60663 q 0.91637,-0.24248 1.51121,0.0204 0.58618,0.23011 0.75937,0.88467 z M 630.41867,793.9943 q 2.38913,-0.63218 3.41707,0.0764 1.02795,0.70854 1.9459,4.17768 0.88331,3.33824 0.37979,4.34695 -0.47944,0.96733 -3.09767,1.66012 -2.55277,0.67547 -3.50468,0.12191 -0.91919,-0.56222 -1.51673,-2.82044 -1.10846,-4.18916 -0.65882,-5.53381 0.44964,-1.34465 3.03514,-2.02878 z"
         id="path2960" />
      <path
         d="m 692.64871,814.96122 0.50941,-0.18412 q 1.71928,-0.62139 2.94447,-0.0203 1.24551,0.55776 1.8554,2.2452 0.66741,1.84663 0.0114,3.01965 -0.63564,1.12967 -2.80065,1.91216 l -2.99282,1.08168 q -1.59192,0.57536 -2.60652,0.25811 -0.98276,-0.32876 -2.06754,-1.73657 -2.00969,2.70622 -4.63696,4.6997 -2.62727,1.99349 -5.65192,3.08668 -5.12599,1.85266 -8.97571,0.36424 -3.84971,-1.48841 -5.44921,-5.91395 -1.72609,-4.77577 1.10759,-8.78772 2.83368,-4.01195 9.67895,-6.48601 1.52824,-0.55234 3.30506,-1.01454 1.77681,-0.4622 4.03657,-0.88296 l -0.21864,-0.60493 q -1.03565,-2.86546 -2.97738,-3.85555 -1.9099,-1.0016 -4.61616,-0.0235 -2.10134,0.75947 -4.81685,3.5048 -2.68367,2.73382 -4.21192,3.28617 -1.4964,0.54084 -2.73041,0.0149 -1.24552,-0.55777 -1.76334,-1.9905 -0.93209,-2.57892 2.28401,-5.43317 3.23643,-2.89761 9.73148,-5.24508 6.78159,-2.45104 10.65432,-0.89895 3.87273,1.55209 6.12814,7.79243 z m -9.9258,-3.36008 q -1.7185,0.22514 -3.11326,0.54925 -1.40625,0.29227 -2.55244,0.70653 -3.50223,1.2658 -5.08229,3.16877 -1.54821,1.89147 -0.80024,3.96097 0.66741,1.84663 2.29768,2.37334 1.61875,0.49486 4.00664,-0.36818 2.19685,-0.794 3.90885,-2.13271 1.712,-1.3387 3.10717,-3.35485 z"
         id="path2962" />
      <path
         d="m 721.17157,802.18967 6.57616,-3.11974 q 2.11049,-1.00122 3.32968,-0.64284 1.21919,0.35838 2.06079,2.13241 0.85612,1.80463 0.34637,3.02068 -0.47916,1.20155 -2.55906,2.18826 l -20.73784,9.83805 q -2.04932,0.97219 -3.31361,0.59774 -1.2337,-0.38897 -2.08981,-2.19359 -0.85611,-1.80462 -0.37852,-2.93048 0.49367,-1.17096 2.60416,-2.17218 l 6.57616,-3.11974 -12.59503,-26.54933 -3.36454,1.59614 q -2.07991,0.98671 -3.37478,0.62677 -1.2788,-0.40505 -2.1204,-2.17908 -0.85611,-1.80462 -0.34637,-3.02068 0.50975,-1.21606 2.62024,-2.21727 l 9.14545,-4.33861 q 0.85643,-0.40629 1.48936,-0.25691 0.649,0.10429 0.93921,0.71603 z"
         id="path2964" />
    </g>
  </g>
  <text
     xml:space="preserve"
     style="font-style:normal;font-variant:normal;font-weight:bold;font-stretch:normal;font-size:469.026px;font-family:Monospace;-inkscape-font-specification:'Monospace, Bold';font-variant-ligatures:normal;font-variant-caps:normal;font-variant-numeric:normal;font-variant-east-asian:normal;display:none;fill:#000000;fill-opacity:1;stroke:none;stroke-width:3.79864;stroke-opacity:1"
     x="239.96483"
     y="665.0351"
     id="text3"
     inkscape:label="#S"
     sodipodi:insensitive="true"><tspan
       sodipodi:role="line"
       id="tspan3"
       x="239.96483"
       y="665.0351"
       style="stroke-width:3.79864">#S</tspan></text>
  <g
     inkscape:groupmode="layer"
     id="layer8"
     inkscape:label="Layer 1"
     style="display:none"
     sodipodi:insensitive="true">
    <path
       d="m 286.3984,665.0351 14.53981,-93.8052 h -53.93799 v -45.96455 h 61.4424 l 9.38052,-56.28312 h -57.22117 v -46.43358 h 64.25656 l 15.47786,-92.39812 h 47.37163 l -15.47786,92.39812 h 40.80526 l 15.00883,-92.39812 h 46.9026 l -15.00883,92.39812 h 54.40702 v 46.43358 h -61.91143 l -9.38052,56.28312 h 57.6902 V 571.2299 H 436.0177 l -15.47786,93.8052 h -47.84065 l 15.47785,-93.8052 H 347.84081 L 333.301,665.0351 Z m 69.41585,-139.76975 h 40.33624 l 9.38052,-56.28312 h -40.33624 z m 294.5485,144.46001 q -25.3274,0 -50.18578,-4.69026 -24.38935,-5.15929 -45.96455,-15.47786 v -61.91143 q 26.26546,13.60175 50.65481,19.69909 24.38935,6.09734 47.37162,6.09734 24.38936,0 39.86721,-7.97345 15.47786,-7.97344 15.47786,-30.01766 0,-14.53981 -8.44247,-22.98228 -7.97344,-8.91149 -23.4513,-16.41591 -15.47785,-7.97344 -37.05305,-19.23006 -21.5752,-11.72565 -39.39818,-25.32741 -17.82299,-13.60175 -28.14156,-31.89376 -10.31858,-18.76104 -10.31858,-45.0265 0,-45.0265 30.01767,-67.07072 30.48669,-22.04422 79.73442,-22.04422 19.69909,0 46.9026,4.69026 27.20351,4.22123 53.46896,16.88494 l -21.57519,52.99993 q -22.98228,-9.84954 -41.74332,-14.07078 -18.76104,-4.22123 -33.30084,-4.22123 -22.98228,0 -33.76988,9.38052 -10.31857,9.38052 -10.31857,26.73448 0,13.60176 6.56637,22.04422 6.56636,8.44247 19.69909,15.47786 13.13273,7.03539 33.30084,16.88494 27.67254,13.60175 46.9026,26.73448 19.6991,12.6637 30.01767,30.01766 10.31857,16.88494 10.31857,42.68137 0,32.3628 -15.94688,54.40702 -15.47786,21.57519 -44.08845,32.83182 -28.61058,10.7876 -66.60169,10.7876 z"
       id="text12"
       style="font-weight:bold;font-size:469.026px;font-family:Monospace;-inkscape-font-specification:'Monospace, Bold';stroke-width:3.79864"
       inkscape:label="#S"
       aria-label="#S" />
    <path
       d="m 251.41427,284.88499 -19.81879,-27.96043 7.9887,-5.66251 q 5.01251,-3.55295 8.84962,-3.03682 3.80936,0.47697 6.5851,4.39299 1.63769,2.31046 2.12982,5.07989 0.5313,2.74167 -0.78484,5.61613 -1.30474,2.80754 -5.10328,5.50001 l -3.95519,2.8035 7.63329,10.76907 z m -6.27394,-16.32174 3.56359,-2.52593 q 3.4461,-2.44265 4.2254,-4.99542 0.81846,-2.58053 -1.37438,-5.6742 -2.05404,-2.89786 -4.48093,-3.00153 -2.38773,-0.13143 -5.63804,2.17244 l -4.15098,2.94228 z m 40.05159,-5.82772 q -5.26148,3.2646 -10.0765,2.24146 -4.81501,-1.02315 -8.20614,-6.48857 -2.22702,-3.58923 -2.49087,-6.92783 -0.28917,-3.37939 1.20055,-6.16785 1.46441,-2.82924 4.5642,-4.75257 4.2826,-2.65723 8.45068,-1.40215 4.20887,1.22977 7.19509,6.0426 l 1.03758,1.67226 -15.86604,9.84441 q 1.85307,2.80446 3.86953,3.86934 2.05726,1.03959 4.22582,0.71085 2.18405,-0.39482 4.46811,-1.81201 1.75383,-1.0882 3.20397,-2.66584 1.45015,-1.57764 2.73863,-3.50688 l 2.02455,3.26294 q -1.37005,1.97985 -3.01847,3.51105 -1.64843,1.5312 -3.32069,2.56879 z m -15.93197,-8.9255 12.11366,-7.51617 q -1.89385,-2.77915 -4.33367,-3.52487 -2.39902,-0.77104 -5.00937,0.84861 -2.7735,1.72087 -3.40817,4.43071 -0.65998,2.66906 0.63755,5.76172 z m 29.0336,0.44528 -1.36063,-2.53832 6.55561,-4.33097 -8.75343,-16.32986 -6.51368,2.78358 -1.40599,-2.62293 9.26486,-4.96632 2.73004,3.8738 0.16922,-0.0907 q 0.005,-2.83484 0.76645,-4.76774 0.80341,-1.95558 3.13021,-3.20283 1.43838,-0.77103 2.67438,-1.1068 1.27831,-0.35846 2.4358,-0.4343 l 0.77618,3.88637 q -0.88099,-0.0179 -1.94777,0.22716 -1.08945,0.20276 -2.14709,0.76969 -1.81913,0.97513 -2.60292,2.86572 -0.78379,1.89059 -0.56711,4.2252 0.21667,2.33461 1.44125,4.6191 l 4.39939,8.20723 6.93979,-2.90307 1.36063,2.53832 z m 35.15492,-17.31973 q -2.18448,0.99401 -4.37312,1.51529 -2.14496,0.5014 -3.90479,0.45841 l -1.65006,-3.62624 q 1.84722,0.003 3.96051,-0.22008 2.13709,-0.28688 4.71478,-1.45981 2.88351,-1.31209 3.66552,-2.72265 0.80583,-1.47412 0.0305,-3.17801 -0.41748,-0.91749 -1.11282,-1.28665 -0.67152,-0.43273 -2.12946,-0.50762 -1.45795,-0.0749 -4.16717,-0.002 -2.70922,0.0726 -4.72334,-0.0656 -2.03399,-0.18191 -3.44455,-0.96393 -1.43044,-0.82571 -2.28528,-2.70436 -1.41149,-3.10196 0.23206,-5.74831 1.68724,-2.66623 5.92513,-4.59461 1.92235,-0.87472 3.82897,-1.32041 1.90662,-0.44569 4.14312,-0.51412 l 0.21199,3.59503 q -2.08555,0.0525 -3.69027,0.46627 -1.56104,0.39391 -3.0028,1.04995 -2.70875,1.23257 -3.65767,2.50813 -0.90522,1.25568 -0.2293,2.74112 0.43737,0.96117 1.25984,1.37795 0.86617,0.39691 2.3678,0.45192 1.54532,0.0351 3.99633,-0.0255 2.77279,-0.0488 4.76703,0.0457 1.97436,0.0508 3.34123,0.85275 1.34698,0.7582 2.26147,2.76792 1.51089,3.32041 -0.0968,6.1614 -1.56404,2.82111 -6.23882,4.94829 z m 27.52204,-11.47459 q -3.14399,1.18531 -6.16717,0.78614 -2.99519,-0.46102 -5.5272,-2.6869 -2.50403,-2.28773 -4.09573,-6.50965 -1.57477,-4.17701 -1.21535,-7.44169 0.40433,-3.28162 2.36662,-5.56036 1.94535,-2.32365 5.08933,-3.50896 3.14399,-1.18531 6.1841,-0.74122 3.02318,0.39917 5.51027,2.64199 2.51508,2.18097 4.12372,6.4478 1.57477,4.17701 1.18736,7.50354 -0.40433,3.28161 -2.34968,5.60527 -1.96229,2.27873 -5.10627,3.46404 z m -1.28103,-3.26179 q 3.5033,-1.32077 4.27872,-4.4345 0.75849,-3.15864 -0.85015,-7.42548 -1.60864,-4.26684 -4.27467,-6.03181 -2.63805,-1.82682 -6.14134,-0.50604 -3.5033,1.32077 -4.32363,4.45143 -0.79236,3.06882 0.81628,7.33565 1.60864,4.26684 4.30853,6.12164 2.68297,1.80988 6.18626,0.48911 z m 18.22683,-3.36585 -7.42817,-24.63234 3.30883,-0.99782 1.69225,3.45036 0.22978,-0.0693 q 0.41949,-2.43271 2.19647,-4.02142 1.80909,-1.64852 4.61239,-2.49389 3.72243,-1.12254 6.61176,0.31237 2.92142,1.37508 4.2657,5.8328 l 4.96135,16.4522 -4.13603,1.24727 -4.73961,-15.71691 q -0.94238,-3.125 -2.65876,-4.16159 -1.68428,-1.09641 -4.48759,-0.25104 -3.76838,1.1364 -4.61023,3.99729 -0.79591,2.84704 0.50679,7.16689 l 3.81109,12.63786 z m 35.52596,-9.37164 q -3.69688,0.84402 -6.40654,-0.45751 -2.66287,-1.31222 -3.50689,-5.0091 -0.92949,-4.07124 1.51245,-6.74586 2.48874,-2.6853 7.97861,-4.08638 l 5.34947,-1.36902 -0.23504,-1.02951 q -0.76923,-3.36931 -2.73166,-4.20138 -1.97312,-0.87888 -4.82767,-0.22717 -2.01222,0.45941 -3.71974,1.39083 -1.70752,0.93142 -3.1317,2.24127 l -2.17717,-2.85092 q 1.57525,-1.29511 3.57829,-2.4417 2.04984,-1.15728 4.90439,-1.809 4.67959,-1.06837 7.74482,0.49663 3.05454,1.51821 4.08018,6.01062 l 3.83548,16.79973 -3.3693,0.76923 -1.25856,-3.35606 -0.18719,0.0427 q -1.09554,2.318 -2.9302,3.7708 -1.78787,1.44211 -4.50203,2.06177 z m -0.078,-3.57636 q 2.10582,-0.48077 3.71312,-1.63548 1.59662,-1.20152 2.32036,-2.99151 0.72374,-1.78999 0.16819,-4.22338 l -0.51282,-2.2462 -4.46036,1.16603 q -4.46035,1.16603 -6.07984,2.91435 -1.57269,1.73764 -1.0385,4.07743 0.49145,2.15261 2.07289,2.8255 1.57076,0.62609 3.81696,0.11326 z m 20.34148,-1.27175 -0.44636,-2.8452 9.18274,-2.1694 -4.53796,-28.92621 -9.10651,0.79701 -0.46124,-2.94004 13.2776,-2.083 5.09591,32.4827 8.36267,-0.58313 0.44635,2.8452 z m 66.86745,-6.12731 q -2.73555,0.0496 -5.33583,-0.38329 -2.60115,-0.4809 -4.10283,-1.22178 l -0.0723,-3.98335 q 1.78963,0.73566 4.3454,1.36141 2.5549,0.57776 5.19447,0.52987 7.39078,-0.13407 7.28196,-6.13308 -0.0296,-1.63173 -0.7189,-2.57939 -0.68931,-0.94765 -2.43269,-1.78017 -1.69627,-0.88138 -4.79214,-2.16944 -2.03221,-0.87528 -3.97192,-1.94427 -1.93971,-1.069 -3.22058,-2.87006 -1.23289,-1.80194 -1.28687,-4.77745 -0.0801,-4.41527 2.75677,-6.81912 2.88486,-2.40472 8.02002,-2.49788 2.59157,-0.047 4.90564,0.48711 2.3132,0.48612 4.05571,1.27064 l -1.32647,3.62466 q -1.64566,-0.73827 -3.66917,-1.13364 -2.02437,-0.44335 -3.99205,-0.40766 -2.83153,0.0514 -4.63347,1.28425 -1.75394,1.23202 -1.69996,4.20753 0.0313,1.72772 0.72238,2.77135 0.73817,0.99478 2.28871,1.78278 1.54968,0.74002 3.96844,1.75231 2.75644,1.10219 4.84187,2.26456 2.13255,1.1135 3.31657,2.86831 1.23114,1.70595 1.28425,4.63347 0.0827,4.55925 -2.89465,7.15768 -2.92937,2.59756 -8.8324,2.70465 z m 29.71798,0.44404 q -3.35583,-0.16727 -5.96881,-1.7393 -2.56266,-1.61758 -3.99654,-4.66874 -1.38356,-3.09672 -1.15894,-7.60312 0.22222,-4.45847 1.85414,-7.30876 1.67986,-2.84791 4.38827,-4.1547 2.7108,-1.35473 6.06663,-1.18746 3.35584,0.16726 5.96643,1.78723 2.61298,1.57203 3.99893,4.6208 1.43627,3.00323 1.20927,7.55758 -0.22223,4.45846 -1.90447,7.35431 -1.67986,2.8479 -4.39066,4.20263 -2.70842,1.30679 -6.06425,1.13953 z m 0.1265,-3.50205 q 3.73935,0.18638 5.69252,-2.35954 1.95555,-2.59387 2.18255,-7.14821 0.22701,-4.55435 -1.51364,-7.23633 -1.69031,-2.72753 -5.42967,-2.91391 -3.73936,-0.18638 -5.74046,2.35715 -1.95077,2.49799 -2.17778,7.05233 -0.227,4.55435 1.50886,7.33221 1.73826,2.72992 5.47762,2.9163 z m 30.29959,6.10939 q -5.6254,-0.66011 -8.50914,-4.09158 -2.83046,-3.47354 -2.01931,-10.38611 0.5762,-4.91031 2.49624,-7.68143 1.96771,-2.76552 4.93146,-3.72263 2.96933,-1.00479 6.64015,-0.57404 2.24062,0.26293 3.99625,0.95223 1.76123,0.64164 3.32908,1.69554 l -1.69554,3.32908 q -1.43602,-0.94178 -2.82146,-1.49098 -1.38543,-0.54921 -3.05398,-0.74501 -4.38591,-0.51466 -6.6258,1.6873 -2.2343,2.15429 -2.79931,6.96925 -0.59857,5.101 1.19404,7.5345 1.7926,2.4335 5.8448,2.90901 2.09761,0.24614 4.0072,0.0352 1.91518,-0.25855 3.37042,-0.71607 l -0.44194,3.76616 q -1.5085,0.49959 -3.65086,0.63484 -2.14237,0.13524 -4.1923,-0.10531 z m 32.56512,-26.20722 q -1.22724,-0.22666 -1.99331,-1.10033 -0.71014,-0.91215 -0.43117,-2.4226 0.28768,-1.55766 1.26808,-2.10876 1.03632,-0.58959 2.26356,-0.36293 1.18005,0.21795 1.93739,1.13881 0.76607,0.87367 0.47838,2.43132 -0.27897,1.51046 -1.31528,2.10005 -1.0276,0.54238 -2.20765,0.32444 z m -16.23314,27.89973 0.52307,-2.8321 9.14629,0.95707 3.36506,-18.21985 -8.14696,-2.13924 0.5405,-2.9265 12.50845,2.31021 -4.0189,21.75999 8.31834,2.26851 -0.52307,2.8321 z m 35.88549,7.89379 q -3.67685,-0.92738 -5.4996,-3.31775 -1.77621,-2.37863 -0.84883,-6.05548 1.0213,-4.04919 4.41171,-5.32269 3.43695,-1.26176 8.96417,-0.0162 l 5.38759,1.21036 0.25826,-1.02393 q 0.84522,-3.35105 -0.52509,-4.98376 -1.35857,-1.67925 -4.19766,-2.39534 -2.00132,-0.50478 -3.94561,-0.45063 -1.94428,0.0541 -3.80804,0.57412 l -0.64456,-3.5288 q 1.99165,-0.43822 4.29695,-0.54981 2.35184,-0.0999 5.19093,0.61622 4.65423,1.17391 6.67407,3.96051 2.03157,2.74006 0.90462,7.20813 l -4.21433,16.70872 -3.35105,-0.84522 0.40327,-3.56153 -0.18617,-0.047 q -2.02894,1.56739 -4.32333,2.02826 -2.24784,0.47261 -4.9473,-0.20826 z m 1.55509,-3.2215 q 2.09441,0.52825 4.05084,0.22966 1.96818,-0.34514 3.42604,-1.61104 1.45787,-1.2659 2.0683,-3.6861 l 0.56347,-2.23403 -4.50328,-0.98733 q -4.50329,-0.98732 -6.74022,-0.16544 -2.19039,0.83363 -2.77735,3.16075 -0.53999,2.14095 0.56322,3.45877 1.11494,1.27128 3.34898,1.83476 z m 18.70281,8.09117 0.87845,-2.74276 9.17929,2.18392 8.93092,-27.88471 -8.49507,-3.37602 0.90774,-2.83419 12.79953,4.09944 -10.02899,31.31316 7.73439,3.2332 -0.87845,2.74276 z m 55.20094,20.18141 10.81785,-32.74584 3.62024,1.66317 q -1.23407,3.60608 -2.51177,7.19211 -1.25765,3.54242 -2.49172,7.1485 -0.58699,1.73761 -1.35785,3.7605 -0.72725,2.04294 -1.45803,3.9786 -0.73079,1.93566 -1.34489,3.50234 -0.59407,1.52307 -0.95475,2.30818 l 0.0872,0.0401 q 0.63535,-0.92305 1.66204,-2.35301 1.09035,-1.45353 2.22078,-2.99431 1.19408,-1.56435 2.12059,-2.77622 l 7.00418,-9.03716 3.75109,1.72328 -2.24635,11.32859 q -0.33236,1.6433 -0.72129,3.52472 -0.38893,1.88142 -0.78495,3.54829 -0.37597,1.62326 -0.66238,2.70661 l 0.0872,0.0401 q 0.52453,-1.02678 1.55356,-3.03672 1.07264,-1.9899 2.46944,-4.57041 1.39679,-2.5805 2.89732,-5.27182 1.8683,-3.26189 3.69298,-6.54381 1.86829,-3.26189 3.73659,-6.52377 l 3.62024,1.66316 -17.44768,29.70004 -4.23089,-1.9437 3.12674,-15.8895 q 0.42193,-2.1832 0.80145,-3.69918 0.39955,-1.55961 0.55277,-2.12309 l -0.0872,-0.0401 q -0.32769,0.48334 -1.187,1.7789 -0.85931,1.29556 -2.26085,3.08154 l -9.88743,12.78359 z m 35.65526,17.94121 q -5.46828,-2.90496 -7.00626,-7.58105 -1.53799,-4.67608 1.47958,-10.35631 1.98168,-3.7303 4.73433,-5.63785 2.77518,-1.94994 5.93452,-2.06521 3.18187,-0.15766 6.40349,1.55379 4.45092,2.3645 5.46301,6.59815 1.05447,4.25617 -1.60278,9.25816 l -0.92329,1.73798 -16.48961,-8.75993 q -1.49155,3.01232 -1.39748,5.29075 0.13646,2.30096 1.51148,4.00978 1.43994,1.68894 3.81376,2.95001 1.82276,0.96833 3.91575,1.42797 2.09299,0.45965 4.40852,0.60269 l -1.80153,3.39118 q -2.40031,-0.18808 -4.55291,-0.84245 -2.1526,-0.65438 -3.89058,-1.57766 z m -0.30085,-18.2593 12.58975,6.68818 q 1.44917,-3.03484 0.86629,-5.5186 -0.54048,-2.46124 -3.25343,-3.90246 -2.8825,-1.5313 -5.54376,-0.71661 -2.63874,0.77231 -4.65885,3.44949 z m 24.93986,32.35372 q -2.42291,-1.46618 -3.53507,-3.42958 -1.11216,-1.96341 -1.2204,-3.82424 l -0.2464,-0.14911 -2.01837,2.59371 -2.95678,-1.78924 18.88644,-31.21046 3.57278,2.162 -4.57251,7.55622 q -0.69582,1.14986 -1.40785,2.2338 -0.67097,1.10879 -1.48998,2.1841 l 0.16427,0.0994 q 1.65761,-0.79226 3.89668,-0.78383 2.23907,0.008 4.74412,1.52432 3.98344,2.4105 4.66681,6.75133 0.72445,4.36569 -2.68008,9.99178 -3.42938,5.66716 -7.65776,7.09184 -4.20352,1.38362 -8.1459,-1.00204 z m 1.11597,-3.42031 q 2.99785,1.8141 5.71118,0.4825 2.71334,-1.3316 5.1984,-5.43824 2.43536,-4.02451 2.35618,-7.04595 -0.0792,-3.02143 -3.11809,-4.86038 -2.83358,-1.71469 -5.71119,-0.48249 -2.81168,1.21598 -5.22219,5.19942 -2.50991,4.14771 -2.41451,7.23506 0.16131,3.07114 3.20022,4.91008 z"
       id="text13"
       style="font-size:48px;font-family:Monospace;-inkscape-font-specification:'Monospace, Normal';stroke-width:2.64604"
       aria-label="Personal Social Web" />
    <path
       d="m 277.48684,799.16991 q -3.18477,-1.96844 -5.94604,-4.49021 -2.66583,-2.54428 -4.57683,-5.5186 l 4.81175,-7.78499 q 2.2456,3.75168 4.83853,6.41392 2.59293,2.66224 5.48281,4.44842 3.06682,1.89554 5.63276,2.09586 2.56594,0.20032 4.27922,-2.5716 1.13003,-1.8283 0.72459,-3.54604 -0.31002,-1.74026 -1.67302,-3.88683 -1.32656,-2.20555 -3.16465,-5.29782 -1.80163,-3.15125 -2.98564,-6.24679 -1.18401,-3.09554 -1.05986,-6.19761 0.16061,-3.16105 2.20196,-6.46377 3.49945,-5.66182 8.98726,-6.10078 5.54679,-0.40251 11.7394,3.42502 2.47705,1.53101 5.5332,4.23503 3.0926,2.64505 5.41111,6.27878 l -6.8321,4.98761 q -2.12438,-3.0247 -4.15539,-5.0136 -2.03102,-1.9889 -3.85931,-3.11893 -2.88989,-1.78618 -4.97542,-1.44505 -2.02655,0.37759 -3.37529,2.55975 -1.05713,1.71034 -0.8876,3.28226 0.16954,1.57193 1.27411,3.47726 1.10457,1.90533 2.87509,4.71132 2.42253,3.86104 3.81992,7.00696 1.49282,3.1234 1.44158,6.10751 -0.0148,2.92514 -2.01969,6.16889 -2.51523,4.06942 -6.23373,5.60196 -3.62307,1.51002 -8.09555,0.70186 -4.43602,-0.86713 -9.21317,-3.81979 z m 41.58266,21.73379 q -9.11239,-4.07976 -12.01501,-11.00072 -2.83934,-6.89263 1.07043,-15.62534 2.4082,-5.37884 6.09151,-8.51556 3.68331,-3.13673 8.31685,-3.64503 4.66188,-0.57158 9.85088,1.75162 7.34054,3.28647 9.42899,9.31116 2.08845,6.02469 -1.28302,13.55507 l -2.03988,4.5562 -22.7177,-10.17107 q -1.09832,2.62283 -0.40782,4.98303 0.6905,2.36021 2.69851,4.32274 2.03635,1.89925 4.88397,3.17417 2.46794,1.10494 5.44399,1.75367 3.00438,0.58546 6.67837,0.86299 l -3.3148,7.40382 q -3.40764,0.14558 -6.60848,-0.67976 -3.16589,-0.73373 -6.07679,-2.03699 z m -0.30227,-25.96345 14.30139,6.40296 q 1.4383,-3.3822 0.35489,-6.22218 -1.02014,-2.81164 -3.99432,-4.14323 -2.9109,-1.30326 -5.84911,-0.33979 -2.90988,0.90019 -4.81285,4.30224 z m 14.94529,49.31721 16.7038,-51.87287 7.25956,2.33768 0.14103,5.21701 0.46198,0.14876 q 2.58721,-2.15329 5.78408,-2.58064 3.26286,-0.4061 6.56266,0.65648 4.61972,1.48762 6.78198,4.95179 2.16225,3.46418 2.18806,8.1342 0.0258,4.67003 -1.63181,9.81772 -2.84773,8.84347 -8.13738,12.60308 -5.28965,3.7596 -11.55927,1.7407 -2.96982,-0.95633 -5.35912,-3.03683 -2.32331,-2.05924 -3.44864,-4.89815 l -0.46197,-0.14876 q -0.45858,2.32887 -0.81761,3.67004 -0.29304,1.36242 -0.3993,1.6924 l -4.69662,14.58512 z m 24.13507,-17.72194 q 3.43179,1.10509 5.91051,-0.93747 2.49996,-2.10854 4.34886,-7.8502 1.65763,-5.14769 0.87904,-8.38481 -0.71258,-3.21588 -4.27637,-4.36347 -3.49779,-1.12634 -6.21923,0.76521 -2.65545,1.91281 -4.12182,6.46653 l -0.34002,1.05594 q -1.8064,5.60966 -0.74258,8.8658 1.06382,3.25613 4.56161,4.38247 z m 17.11493,30.48341 11.75084,-53.21399 7.44725,1.64452 0.6311,5.18061 0.47391,0.10466 q 2.37322,-2.38709 5.51572,-3.11323 3.2102,-0.71119 6.59531,0.0363 4.73916,1.04651 7.21766,4.29196 2.47849,3.24544 2.94343,7.89234 0.46493,4.6469 -0.70118,9.92768 -2.00332,9.07211 -6.91592,13.31257 -4.91259,4.24046 -11.3443,2.82019 -3.04661,-0.67276 -5.621,-2.51931 -2.50669,-1.8316 -3.89405,-4.55208 l -0.47391,-0.10465 q -0.2375,2.36168 -0.4688,3.73067 -0.1636,1.38395 -0.23835,1.72246 l -3.30399,14.9622 z m 22.36124,-19.9134 q 3.52051,0.77741 5.79613,-1.48923 2.29056,-2.33433 3.59123,-8.22443 1.16611,-5.28078 0.0865,-8.43033 -1.01189,-3.1346 -4.66782,-3.94191 -3.58822,-0.79236 -6.11969,1.34678 -2.46377,2.15408 -3.49533,6.82553 l -0.23921,1.08324 q -1.27076,5.75469 0.0946,8.89634 1.36536,3.14165 4.95358,3.93401 z m 38.68117,15.22013 q -5.63529,-0.7527 -9.29994,-3.6904 -3.66466,-2.93771 -5.21678,-7.55181 -1.55211,-4.61411 -0.77187,-10.45556 0.7986,-5.9789 3.51648,-10.09261 2.78661,-4.10453 7.09382,-5.97744 4.37593,-1.86372 10.01121,-1.11102 8.10931,1.08316 12.23148,6.87993 4.12216,5.79677 2.90131,14.93693 -0.78024,5.84145 -3.4294,9.96434 -2.63999,4.05417 -6.95638,5.9958 -4.3072,1.8729 -10.07993,1.10184 z m 1.21142,-8.02223 q 3.91721,0.52322 6.17662,-2.25275 2.26859,-2.84469 2.97539,-8.13636 0.68845,-5.15422 -0.754,-8.49459 -1.36455,-3.39992 -5.35048,-3.93232 -3.98594,-0.5324 -6.39197,2.29393 -2.32813,2.76679 -3.03494,8.05846 -0.7068,5.29167 0.80437,8.64122 1.58908,3.29001 5.57501,3.82241 z m 40.2531,11.88274 q -3.04624,-0.16432 -4.62193,-1.8463 -1.50645,-1.67825 -1.3496,-4.58602 0.32864,-6.09247 6.62881,-5.75263 2.977,0.16059 4.48346,1.83883 1.57569,1.68198 1.41884,4.58975 -0.14939,2.76931 -1.9006,4.34126 -1.75121,1.57196 -4.65898,1.41511 z m 39.90494,0.68822 q -3.74306,0.0837 -7.43231,-0.52728 -3.62148,-0.68187 -6.84412,-2.13551 l -0.20463,-9.14971 q 3.92665,1.92335 7.55123,2.74385 3.62458,0.8205 7.02107,0.74454 3.60443,-0.0806 5.8655,-1.31015 2.26107,-1.22952 2.18821,-4.48737 -0.0481,-2.1488 -1.32365,-3.36858 -1.20782,-1.29065 -3.52005,-2.34855 -2.31378,-1.12721 -5.53952,-2.71949 -3.22729,-1.66159 -5.90626,-3.61284 -2.67896,-1.95125 -4.26437,-4.62047 -1.58696,-2.73854 -1.67377,-6.62023 -0.14882,-6.65433 4.21454,-10.0114 4.43268,-3.35861 11.71085,-3.52139 2.91127,-0.0651 6.9471,0.53814 4.03428,0.53393 7.95783,2.31865 l -3.01336,7.90402 q -3.42904,-1.37968 -6.21563,-1.94151 -2.78659,-0.56184 -4.93538,-0.51378 -3.39649,0.076 -4.95975,1.49793 -1.49395,1.42043 -1.43659,3.98512 0.045,2.01016 1.04329,3.23615 0.99832,1.22598 2.96242,2.22231 1.96411,0.99634 4.97725,2.38531 4.13459,1.9187 7.01996,3.79599 2.95312,1.80642 4.53543,4.33701 1.58076,2.46127 1.66602,6.27365 0.10697,4.7828 -2.17691,8.09335 -2.21612,3.2397 -6.40719,4.99784 -4.19262,1.68883 -9.80721,1.8144 z m 43.30004,-2.54732 q -5.65781,0.55868 -9.89814,-1.46108 -4.24033,-2.01976 -6.80848,-6.15541 -2.56816,-4.13565 -3.14727,-10.00046 -0.59274,-6.0028 1.11015,-10.62987 1.77189,-4.63387 5.5353,-7.44395 3.83241,-2.8169 9.49022,-3.37557 8.14173,-0.80395 13.48256,3.89396 5.34082,4.69792 6.24697,13.87462 0.57911,5.8648 -1.05478,10.48505 -1.64071,4.55125 -5.39731,7.43033 -3.76341,2.81008 -9.55922,3.38238 z m -0.65913,-8.08636 q 3.93287,-0.38834 5.49603,-3.6082 1.55635,-3.28885 1.03174,-8.60168 -0.51098,-5.17483 -2.68051,-8.09577 -2.10735,-2.99676 -6.10922,-2.6016 -4.00187,0.39516 -5.69621,3.69764 -1.63216,3.22667 -1.10755,8.5395 0.52461,5.31282 2.76314,8.22695 2.30071,2.83832 6.30258,2.44316 z m 44.57424,1.92137 q -9.4194,1.67972 -14.76419,-2.22664 -5.2887,-3.98679 -6.95625,-13.33793 -1.7284,-9.69242 2.01233,-15.57109 3.80898,-5.89084 13.16012,-7.55839 2.79852,-0.49904 5.96744,-0.50072 3.225,-0.0821 6.45955,0.6792 l -1.46701,8.36072 q -2.92501,-0.60523 -5.23833,-0.54484 -2.31333,0.0604 -3.67846,0.30382 -9.21463,1.6432 -7.24279,12.70076 1.01026,5.66529 3.86177,7.83302 2.9076,2.0873 7.41253,1.28396 2.11595,-0.37732 4.53189,-1.44199 2.47203,-1.1451 5.09059,-3.44316 l 1.58234,8.87335 q -2.66725,2.02503 -5.23187,3.04579 -2.56463,1.02075 -5.49966,1.54414 z m 28.05805,-50.17637 q -5.83151,1.54223 -7.32056,-4.0882 -1.48904,-5.63043 4.47653,-7.2081 5.89854,-1.55995 7.36986,4.00344 1.50677,5.69746 -4.52583,7.29286 z m -6.31452,45.27387 -1.5954,-6.0326 11.66745,-5.23713 -5.42438,-20.51083 -10.69083,1.60815 -1.82585,-6.90398 20.10866,-5.31801 7.55159,28.5543 11.4575,-0.87859 1.59541,6.03259 z m 51.00944,-14.14656 q -5.60796,2.02587 -9.5372,0.12796 -3.88758,-1.98668 -5.70144,-7.00776 -2.1672,-5.99921 0.62553,-10.10426 2.85795,-4.12861 9.96025,-6.91546 l 7.75439,-3.02242 -0.56535,-1.56501 q -1.7903,-4.95587 -8.89807,-2.38821 -4.56462,1.64896 -9.52563,5.87383 l -5.44403,-5.47893 q 5.06413,-5.3679 12.56314,-8.07691 7.56423,-2.73256 12.8031,-1.0866 5.21532,1.58075 7.50031,7.90601 l 8.57459,23.73602 -7.17297,2.59122 -3.12521,-3.9576 -0.26083,0.0942 q -1.46501,3.69913 -3.91018,5.90938 -2.44517,2.21025 -5.6404,3.36452 z m 0.6402,-8.63519 q 3.32565,-1.20139 5.01358,-3.87527 1.68794,-2.67389 0.55722,-5.80391 l -1.06004,-2.9344 -5.36522,2.08561 q -3.88898,1.47861 -5.50453,3.53659 -1.5739,1.96923 -0.63164,4.57758 0.84804,2.34752 2.78996,2.8255 1.91836,0.41278 4.20067,-0.4117 z m 27.51429,-2.64957 -2.6735,-5.63826 10.38536,-7.22641 -15.44687,-32.57661 -9.97503,2.42788 -2.6735,-5.63826 18.16773,-8.6146 19.01153,40.09429 11.22797,-3.02199 2.6735,5.63826 z"
       id="text14"
       style="font-weight:bold;font-size:69.3333px;font-family:Monospace;-inkscape-font-specification:'Monospace, Bold';stroke-width:5.0257"
       inkscape:label="text6"
       transform="translate(11.20465)"
       aria-label="Seppo.Social" />
  </g>
  <g
     inkscape:groupmode="layer"
     id="layer5"
     inkscape:label="hex"
     style="display:inline"
     sodipodi:insensitive="true">
    <path
       sodipodi:type="star"
       style="fill:none;fill-opacity:1;stroke:#000000;stroke-width:3.77953;stroke-opacity:1"
       id="path1"
       inkscape:flatsided="true"
       sodipodi:sides="6"
       sodipodi:cx="290.70685"
       sodipodi:cy="187.10175"
       sodipodi:r1="489.02692"
       sodipodi:r2="563.72406"
       sodipodi:arg1="-1.5707964"
       sodipodi:arg2="-1.0471976"
       inkscape:rounded="0"
       inkscape:randomized="0"
       d="m 290.70681,-301.92517 423.50975,244.513426 4e-5,489.026914 -423.50972,244.51349 -423.50975,-244.51343 -3e-5,-489.026912 z"
       inkscape:transform-center-x="-4.1366239"
       inkscape:transform-center-y="49.881512"
       transform="translate(221.29317,321.62506)" />
  </g>
</svg>
