digraph "subscribed"
{

bgcolor = "#ffffff"

node [
class = "node"
,fillcolor = "#ffaa00",style = "filled"
,width = "0.194444",height = "0.194444"
,shape = "ellipse"
,color = "#000000"
,penwidth = "1"
];


"N1" [
label = "Pending"
]

"N6" [
label = "Blocked"
]

"N7" [
label = "None"
]

"N5" [
label = "Accepted"
]



edge [
class = "edge"
,"_vis_" = "label"
,"color" = "#a0a0a4"
,"style" = "solid"
];


"N1" -> "N5" [id = "E1"
,label = "accept"
,"style" = "dashed"
];

"N7" -> "N6" [id = "E5"
,dir=both
,label = "un/block"
,"style" = "dashed"
];

"N1" -> "N6" [id = "E3"
,label = "block"
,"style" = "dashed"
];

"N5" -> "N7" [id = "E2"
,label = "unfollow"
,"style" = "solid"
];

"N7" -> "N1" [id = "E6"
,dir=both
,label = "un/follow"
,"style" = "solid"
];

"N5" -> "N6" [id = "E4"
,label = "block"
,"style" = "dashed"
];

"N1" -> "N7" [id = "E9"
,label = "reject"
,"style" = "dashed"
];


}
