<svg width="1024" height="1024" xmlns="http://www.w3.org/2000/svg">
  <path fill="#fbab3a" d="M0 0h1024v1024H0z"/>
  <g font-family="Courier">
    <g aria-label="#S" style="line-height:1.25;-inkscape-font-specification:&quot;Courier, Normal&quot;" font-size="540" word-spacing="0" stroke-width=".4">
      <path d="M342 547.7h53.4l22.4-70.5h-53.4zm-51 159.2q-2 6.1-5.1 9-3 3-7.5 3-8.2 0-13.4-4.8-5-4.7-5-12.6 0-1 .5-2.8l1-3.3L298.3 580h-56q-7.6 0-11.9-3.9-4-4.2-4-12 0-7.9 4.3-12 4.2-4.5 11.7-4.5h66l22.4-70.5h-66q-7.8 0-12-4.2-4-4.2-4-12 0-7.9 4.3-12.4 4.4-4.7 11.6-4.7H341L381.3 317q2-6.1 5-9 3.2-3 7.7-3 8 0 12.9 4.8 5 4.7 5 12.6 0 2.2-.3 3.6-.2 1.4-.7 2.5L374.6 444H428L468.8 317q1.7-5.8 5-9 3.4-3 7.6-3 7.7 0 13 5 5.4 4.8 5.4 11.8 0 1.7-.5 3.4-.2 1.6-1 3.3L461.6 444h51.9q7.4 0 11.7 4.5 4.2 4.4 4.2 12 0 7.8-4.2 12.3-4.3 4.5-11.7 4.5h-62.1L429 547.7h61.6q7.5 0 11.7 4.4 4.2 4.2 4.2 12 0 8-4.2 12.1-4 4-11.7 4h-71.8l-40.2 126.7q-1.8 6.1-5 9-3.2 3-7.7 3-8 0-13.2-4.8-5-4.7-5-12.6 0-1 .3-2.8l1.2-3.3 36-115.3h-53.4ZM610.4 686.7q-1.2 12.6-5.7 17.4-4.5 5-14.2 5-10.4 0-15.6-7-5-6.7-5.7-22.1l-3.3-65v-5q0-13.4 4.5-19 4.7-5.6 15.4-5.6 15 0 21.4 24.1 3 12 5.7 18.2 8.7 19.6 27.3 30.2 19 10.6 45 10.6 32 0 52-17 20-17.1 20-43.7 0-22-12.3-35.5-12.2-13.4-35.8-17.4l-36.8-5.6q-51.5-8-75-30.4-23.7-22.4-23.7-63 0-42.8 31.3-71.9 31.6-29 78.6-29 13.6 0 28.8 4.1 15.2 4 34.3 12.6.5-8.1 4-11.2 3.4-3 11.9-3 11 0 15.2 3.6 4.2 3.6 5.2 17.3l3.5 58.5v2.8q0 9.8-5 15.4-5 5.3-14 5.3-13.1 0-20.3-20.7-3.5-11.8-7-17.6-8.2-14-23.6-21.6-15.4-7.5-35-7.5-30 0-49 16.7-18.6 16.8-18.6 44 0 21.2 13.9 33.5 14.2 12.4 43 16.8l39.8 5.6q43.2 6.5 65 30 22 23.2 22 62.9 0 47-31.1 75.5-31 28.3-83 28.3-18 0-35.6-4.8-17.6-4.7-37.5-14.8z"/>
    </g>
    <g aria-label="Personal Social Web" style="-inkscape-font-specification:&quot;Courier, Normal&quot;" font-size="50.7" stroke-width="2.6">
      <path d="m241.8 260 6.6 9.5 3.8-2.7q3.2-2.3 4-4.5.7-2.3-1-4.7-1.6-2.3-4-2.4-2.4 0-5.6 2.2zm17.1 15.3q1-.7 1.7-.7t1.2.8q.5.8.3 1.4-.2.6-1.3 1.5l-10 7q-.6.4-1.2.3-.7-.1-1.2-.8-.5-.7-.4-1.3.2-.6.9-1.1l2.6-1.9-12.9-18.2-1.4 1q-1.7 1.3-2.4 1.3t-1.2-.9q-.5-.7-.4-1.3 0-.6.7-1.1l9.4-6.6q5-3.5 8.8-3.4 3.9.1 6.5 3.8 2.6 3.7 1.4 7.4-1.2 3.6-6.1 7.1l-3.6 2.5 4.4 6.2zM273 257.6q2 2.9 4.9 3.4 2.9.5 6.1-1.5 2.5-1.5 4.6-4.6 2.1-3.1 2.7-3.5.7-.4 1.3-.3.7.2 1 .8.4.6.3 1.4-.1.7-.8 1.8-1.5 2.4-3.4 4.3-2 1.9-4.1 3.3-4.8 3-9.4 2-4.6-1-7.4-5.7-2.9-4.6-1.6-9.4 1.3-4.8 6.2-7.8 4.5-2.7 9-1.8 4.6.9 7 4.7.7 1.2.5 2-.3.6-2.5 2l-.3.2zm-1.7-2.9 13.8-8.4q-1.9-2.3-4.6-2.7-2.7-.5-5.3 1.1-2.8 1.7-3.8 4.4-1 2.6 0 5.6zM308.1 245l7.3-3.8q.9-.4 1.4-.3.6.2 1 1 .5.8.3 1.4-.2.5-1.2 1l-14.3 7.6q-.9.4-1.5.3-.7-.2-1.1-1-.4-.8-.2-1.4.3-.6 1.3-1l3.8-2-7.4-14.1-1.5.8q-2.1 1-2.8 1-.7 0-1.2-1-.4-.7-.2-1.3.3-.6 1.1-1l5-2.7q.6-.3 1-.2.5 0 .7.5l2 3.7q.7-3.7 2.3-6.2 1.5-2.4 4.2-3.8 2-1 3.5-.9 1.6.2 2.3 1.5.4.8.1 1.7-.2 1-1 1.3-.5.3-2 .3-1.5-.1-2.5.4-1.7.9-3 3.1-1.2 2.2-2.1 6zM328.7 236.5l-1.8-4q-.4-1-.2-1.6.2-.6 1-1 1-.4 2 .6l1.2.9q1.5.8 3.7.7 2.1 0 4.4-1 2.4-1 3.4-2.7 1-1.6.3-3.2t-2.2-1.8q-1.4-.1-4.2 1.1l-1.3.6q-4.6 2-7.7 1.4-3.2-.5-4.5-3.6-1.3-3 .3-5.6 1.6-2.7 6-4.6 1.7-.8 3.7-1l2.1-.4.8-.9q.5-.8 1.2-1 .7-.4 1.3 0 .7.4 1.2 1.5l1.1 2.7q.6 1.2.4 1.9 0 .7-.9 1-.7.3-2.2-.4l-1.6-.7q-1.7-.6-3.3-.4-1.6 0-3.4.9-2.1.9-3 2.4-1 1.5-.3 3 .6 1.4 2.2 1.4t6.1-1.8q4.8-2 7.6-1.4 2.9.6 4.3 3.8 1.3 3-.3 6-1.6 2.8-5.7 4.6-1.2.6-3 1-1.6.5-4.3 1l-1 1.3q-.4.6-.8.7-.8.4-1.5 0-.6-.4-1.1-1.4zM366.6 219.9q3.6-1.3 5-4.4 1.5-3.1.3-6.6-1.3-3.5-4.4-5-3.2-1.5-6.7-.2-3.6 1.3-5 4.4-1.5 3.1-.3 6.6 1.3 3.6 4.4 5 3 1.4 6.7.2zm9.3-12.5q1.8 5-.5 9.4-2.2 4.4-7.7 6.3-5.4 2-10 0-4.4-2-6.2-7-1.8-5 .5-9.3 2.2-4.4 7.6-6.3 5.4-2 10 0 4.5 2 6.3 7zM386.7 212.4l-4.3-15.2h-.4q-1.6.5-2.4.3-.7-.2-1-1.1-.2-1 .2-1.4.4-.6 1.5-.9l1.1-.3 2.3-.6q.7-.2 1.1 0 .4.1.6.6l.4 1.6q1.3-2.1 2.8-3.4 1.5-1.2 3.3-1.7 3.6-1 6.3.6 2.7 1.7 3.8 5.6l3 10.8 1.1-.3q1.2-.3 1.8 0 .7.2 1 1 .2 1-.3 1.5-.4.6-1.9 1l-5.2 1.4q-1.6.5-2 .2-.6-.2-.9-1.2-.2-1 .2-1.4.4-.5 1.7-1l.9-.2-2.8-9.9q-.8-2.8-2.4-3.9-1.7-1-4.1-.4-2.5.7-3.9 2.8-1.4 2.2-.7 4.6l2.8 10 .8-.3q1.5-.4 2-.2.7.2 1 1.2.2 1-.1 1.4-.4.5-2 1l-4.4 1.2-1.3.4q-1 .2-1.6 0-.5-.3-.8-1.2-.3-1 .2-1.5t2-1zM429.3 194.4h-2.8l-2.5.2q-3.7.7-5.6 2.4-2 1.7-1.5 3.9.3 1.6 1.9 2.4 1.6.8 3.7.4 3-.6 5.3-2.8 2.3-2.1 2-3.9zm1.7 7.6q-1.6 2.2-3.8 3.6-2.1 1.5-4.6 2-3.6.7-6.2-.9-2.7-1.5-3.3-4.8-.8-3.8 1.7-6.5 2.6-2.7 7.9-3.8 1.4-.3 2.9-.4h3v-.2q-.6-2.8-2.2-3.8t-4.4-.5q-1.9.4-4 1.8-2.1 1.5-2.9 1.7-.7.1-1.3-.3-.5-.5-.7-1.4-.3-1.5 2.1-3 2.5-1.5 6.7-2.4 4.3-.8 6.9 1 2.6 1.6 3.5 5.9l2.2 11 1.2-.3q1.7-.3 2.4 0 .6.2.8 1.1.2.9-.2 1.4-.4.5-1.4.7l-3.8.8q-.7.2-1.2-.2-.5-.3-.8-1zM450.8 172.9l-4.2.5q-2.4.3-3 0-.7-.3-.8-1.3-.1-.9.3-1.4.5-.5 1.4-.6l8.1-1q.7-.1 1 .1.5.2.5.7l3.6 27.7 7.7-1q.9-.1 1.4.2.5.4.6 1.2.1 1-.3 1.5-.3.4-1.5.6l-18.1 2.3q-1 .1-1.5-.3-.6-.4-.7-1.2-.1-.9.4-1.4.4-.5 1.5-.6l6.8-.9zM509.5 197q-.1 1.1-.6 1.5-.4.5-1.4.4-1 0-1.6-.6-.4-.6-.5-2l-.2-5.7v-.5q0-1.2.5-1.6.5-.5 1.5-.5 1.5 0 2.1 2.2l.5 1.6q.9 1.7 2.7 2.7 1.9 1 4.5 1 3.2 0 5.2-1.4 2-1.5 2-3.8 0-2-1.1-3.2-1.2-1.2-3.6-1.6l-3.6-.5q-5.1-.9-7.4-2.9-2.4-2-2.3-5.6 0-3.8 3.2-6.3t7.9-2.4q1.4 0 2.9.4t3.4 1.2q0-.7.4-1 .3-.3 1.2-.2 1 0 1.5.3.4.3.5 1.5l.2 5.2v.3q0 .8-.5 1.3t-1.4.5q-1.3 0-2-1.9-.3-1-.7-1.6-.8-1.2-2.3-2-1.5-.6-3.5-.7-3 0-4.9 1.4-1.8 1.5-1.9 3.9 0 1.9 1.4 3 1.3 1.1 4.2 1.5l4 .6q4.2.7 6.4 2.8 2.1 2 2 5.6 0 4.1-3.1 6.6-3.2 2.4-8.4 2.4-1.7 0-3.5-.5-1.7-.5-3.7-1.4zM547.3 196.8q3.8.3 6.4-1.9 2.7-2.1 3-5.9.4-3.7-1.9-6.3-2.2-2.7-6-3-3.7-.4-6.4 1.9-2.6 2.2-3 5.9-.3 3.7 2 6.3 2.1 2.6 6 3zm13.7-7.4q-.5 5.3-4.4 8.3-3.8 3-9.6 2.5-5.7-.5-9-4.1-3.3-3.7-2.8-9 .4-5.3 4.3-8.3 4-3 9.6-2.5 5.8.5 9 4.2 3.4 3.7 3 9zM588 183.5v-.1q.1-.8.6-1.1.6-.4 1.5-.2 1 .2 1.3.8.3.7 0 2.5l-.7 4.5q-.2 1-.7 1.3-.5.4-1.5.2-.6 0-1-.5t-1-1.8q-.8-2.1-2.3-3.4-1.5-1.3-3.7-1.7-3.8-.6-6.6 1.3-2.7 1.9-3.3 5.4-.5 3.7 1.4 6.4 1.9 2.6 5.5 3.2 1.6.3 3.1 0 1.6-.2 3-.9l1.5-.7q1.8-1 2.7-.9.7.2 1.1.7.4.6.3 1.3-.3 2-4.3 3.4t-8 .8q-5.4-.9-8.4-4.9t-2.1-9q.8-5 4.9-8 4-2.8 9.3-2 1.9.4 3.6 1.2 1.8.8 3.8 2.2zM611.6 179.5q.6-2.6 1.2-3.2.7-.5 2.2-.2 1.5.4 1.9 1 .3.7-.2 2.9-.5 2-1 2.4-.6.4-2.2 0-1.5-.3-1.9-.9-.3-.5 0-2zm-1.5 26.9 7.7 1.7q1 .3 1.3.8.4.5.2 1.3-.3 1-.8 1.3-.5.3-1.6 0l-18.7-4.3q-1-.2-1.4-.8-.3-.5-.1-1.4.2-.8.8-1.1.6-.3 1.6-.1l7.3 1.7 3.6-15.4-4.7-1.1q-1-.3-1.4-.8-.4-.6-.2-1.4.2-.9.8-1.2.5-.3 1.5 0l7 1.6q.7.1 1 .5.3.3.2.8zM644.9 208.2l-2.4-1.4-2.3-1q-3.7-1-6.2-.4-2.4.6-3 2.6-.6 1.7.4 3.1 1 1.4 3 2 3 1 6.1.2 3-.8 3.6-2.5zm-2.1 7.5q-2.5 1.2-5 1.4-2.6.3-5-.5-3.6-1-5.1-3.7-1.6-2.6-.6-5.7 1-3.8 4.6-5 3.5-1.2 8.7.4 1.4.4 2.7 1 1.4.6 2.7 1.5v-.2q.9-2.7 0-4.4-1-1.7-3.7-2.5-1.8-.6-4.4-.3-2.6.3-3.3 0-.7-.1-1-.8-.2-.7 0-1.6.4-1.4 3.3-1.6 3-.1 7 1 4.2 1.4 5.7 4.1 1.5 2.8.2 7l-3.2 10.7 1.1.3q1.7.5 2.2 1 .4.6.1 1.5-.2.8-.8 1.1-.6.3-1.6 0l-3.7-1.1q-.6-.2-1-.7-.3-.6-.2-1.4zM673.8 199.3l-4-1.5q-2.2-.8-2.6-1.4-.4-.6 0-1.5.2-.9.8-1.1.7-.2 1.6.1l7.6 2.9q.7.2 1 .6.2.4 0 .8l-9.8 26.1 7.3 2.8q.8.3 1 .8.4.6 0 1.4-.3 1-.8 1.2-.6.2-1.7-.2l-17-6.5q-1-.3-1.3-1-.3-.5 0-1.3t1-1q.6-.3 1.6.1l6.4 2.4zM718 243.2l10.6-11.1q.6-.6.9-.7.4 0 1 .3l1 .5.8.7q.2.4 0 1l-2.6 15.5L741 233l-3.4-1.8q-1-.5-1.3-1.1-.3-.6 0-1.4.5-.8 1.1-1 .7 0 1.9.6l7 3.7q.5.3.7 1 .1.5-.2 1.2-.4.7-1 .9-.6.1-1.4-.3l-.3-.2-14.6 20.3-.7.8-.8-.1-1.5-.9q-.5-.2-.7-.6v-1l3.1-17.5-12.1 12.9q-.5.5-.8.5l-.9-.2-1.6-.9q-.5-.2-.6-.5 0-.4.3-1.1l8.1-23.7h-.3q-.8-.5-1-1.1-.3-.6.1-1.4.4-.6 1-.8.5-.3 1 0l7 3.7q1.3.6 1.6 1.2.2.6-.2 1.4-.4.8-1 .9-.7 0-1.7-.4l-3-1.7zM745.3 253.5q-1.7 3.2-.8 6 1 2.8 4.2 4.8 2.5 1.5 6.2 2 3.7.4 4.3.7.7.4.9 1 .1.7-.2 1.3-.4.6-1.1.9-.8.2-2 .1-2.8-.2-5.4-1-2.6-.9-4.8-2.2-4.8-3-6-7.4-1.3-4.6 1.5-9.2 2.8-4.7 7.6-5.7 4.9-1 9.8 2 4.5 2.6 5.8 7.1 1.3 4.5-1 8.3-.8 1.2-1.5 1.3-.7.1-3-1.2l-.3-.2zm1.8-2.7 13.8 8.3q1.2-2.7.3-5.3-.8-2.6-3.5-4.2-2.8-1.7-5.6-1.4-2.8.4-5 2.6zM775.7 281q3 2 6 1.4 3-.5 5-3.4t1.3-6q-.5-3-3.3-5-2.9-2-6-1.3-3 .6-5 3.4-1.9 2.9-1.4 6 .6 3 3.4 5zm2.6-17.4q2.1-.6 4.4-.2 2.2.4 4.4 1.9 4 2.8 5 7.4.8 4.7-2 8.8-2.8 4-7.5 4.8-4.7 1-8.8-1.8-2.1-1.5-3.2-3.3-1-1.9-1-4.1l-1.2 1.6q-.3.6-.7.7l-.8-.2-3.7-2.6q-.8-.5-1-1.2-.1-.6.4-1.3.5-.8 1.2-.8t2 1l.5.3 14.3-21-.4-.2q-1.4-1-1.6-1.6-.3-.7.2-1.5t1.2-.9q.6 0 1.4.5l3.1 2.1q.7.4.8.8.1.4-.2.9z"/>
    </g>
    <g aria-label="Seppo.Social" style="-inkscape-font-specification:&quot;Courier, Bold&quot;" font-weight="700" font-size="69.3" stroke-width="5">
      <path d="M318.4 770.4q1-.6 1.8-.6.7 0 1.9.7 1.6 1 1.7 2 .1.8-1 2.7l-3.3 5.6-.2.3q-1 1.7-2.1 2-1.1.2-2.7-.8-2-1.2-1.7-4v-.7q.3-2.3-.7-4.2-1-1.8-3-3.1-2.6-1.6-5-1.4-2.3.2-3.4 2-1.7 2.7 4.7 8.8l1.7 1.6q4.8 4.6 5.7 8.6 1 4-1.7 8.3-3.2 5.3-8.6 6-5.4.6-12.1-3.6-2.6-1.6-4.5-3.2-1.8-1.6-3.3-3.5-1 .4-1.7.4-.8 0-1.9-.7-1.8-1.1-2.1-2.3-.3-1.1.8-2.9l4-6.8.2-.3q1.2-2 2.3-2.2 1.2-.4 3 .7 1.9 1.2 1.4 4.7l-.1 1.3q-.3 2.9 1 5.2 1.4 2.3 4.3 4.1 2.6 1.7 4.8 1.5 2.1-.2 3.4-2.2 1.9-3-3.8-8.8l-2.7-2.7q-4.6-4.9-5.4-8.4-.8-3.6 1.5-7.4 3-5 8.7-5.8 5.6-.8 11.5 2.8 2 1.2 3.6 2.8 1.6 1.6 3 3.5zM324.5 802.6q-.7 3.8.8 6.5 1.5 2.8 5.4 4.5 3.8 1.7 8.4 1.5 4.6-.2 5.3.1 1.2.6 1.5 1.7.4 1.2-.2 2.5-1.3 3-6.6 3.1-5.2.2-11.5-2.6-7.5-3.4-10.3-9.7-2.8-6.3.1-12.9 3-6.6 9.5-8.7 6.6-2 14.1 1.3 6.7 3 9.3 8.9 2.6 5.9 0 11.6-.8 1.8-2 2-1.1.4-3.9-.9zm18.8 2.6q.8-3-.7-5.6-1.5-2.6-5-4.1-3.3-1.5-6-1-2.8.6-5 3.3zM361 828.6l-2.8 8.8 4.1 1.3q2.2.7 2.9 1.9.7 1.1 0 3-.6 1.9-1.7 2.4-1.2.5-3.5-.2l-13.6-4.4q-2.2-.8-2.9-1.8-.6-1.1 0-3 .6-2 1.8-2.5 1.2-.5 3.3.2l2 .6 9.1-28.4-.5-.2q-1.7-.6-2.3-1.7-.6-1.2 0-3 .5-1.9 1.7-2.4t3.4.2l5 1.6q.9.3 1.2.8.4.5.2 1.1l-.8 2.3q2.4-1.6 5-2 2.7-.3 5.7.6 6.6 2.1 9.6 7.8 3 5.6.9 12-2.2 6.7-7.8 9.7-5.6 3-12 1-2.7-.8-4.7-2.3-2-1.5-3.3-3.4zm14.1-18.2q-3.2-1-6 .6-2.8 1.7-4 5.4-1.2 3.7.1 6.7t4.5 4q3.2 1 6-.6 3-1.7 4-5.4 1.3-3.7 0-6.7t-4.6-4zM400.8 840l-2 9 4.2.9q2.2.5 3 1.5.8 1.1.4 3-.5 2-1.6 2.6-1.2.6-3.4.1l-14-3.1q-2.3-.5-3-1.5-.8-1-.4-3t1.6-2.6q1.1-.6 3.4-.1l1.9.4 6.4-29.2-.5-.1q-1.7-.4-2.5-1.5-.7-1.2-.3-3 .4-1.9 1.6-2.5 1-.6 3.3-.1l5.1 1q1 .3 1.4.8.4.4.2 1l-.5 2.4q2.2-1.8 4.8-2.4 2.7-.7 5.7 0 6.8 1.5 10.3 6.8 3.5 5.3 2 12-1.5 6.8-6.8 10.4-5.4 3.5-12 2-2.6-.5-4.8-1.8-2.1-1.3-3.5-3zm12.3-19.6q-3.3-.7-6 1.3-2.6 2-3.4 5.7-.9 3.7.7 6.6 1.6 2.9 4.9 3.6 3.2.7 5.9-1.2 2.7-2 3.5-5.7.8-3.8-.7-6.7-1.6-2.8-5-3.6zM450.6 827q-4-.5-6.8 1.7-2.9 2.2-3.4 6.2t1.6 7q2.2 3 6.1 3.5 4 .5 6.9-1.8 2.9-2.3 3.4-6.3t-1.7-6.9q-2.1-2.9-6-3.4zm1-7.1q8.1 1 12.6 6.3 4.4 5.3 3.5 12.4-1 7.2-6.7 11-5.6 4-13.8 2.9-8.1-1.1-12.6-6.3-4.4-5.3-3.5-12.5 1-7.1 6.7-11 5.7-3.9 13.8-2.8zM489.4 843.3q3.2.1 5 2 1.9 1.9 1.7 4.7-.1 2.8-2.2 4.5-2 1.6-5.2 1.5-3.1-.2-5-2-1.8-2-1.7-4.8.2-2.8 2.2-4.4 2-1.7 5.2-1.5zM537.9 816.6q.5-1.1 1.1-1.5.7-.4 2-.5 2 0 2.5.7.6.7.7 2.9l.3 6.5v.3q0 2-.8 2.9-.7.8-2.6.8-2.4 0-3.7-2.5l-.2-.6q-1.1-2-3-3-1.8-1.1-4.2-1-3 0-5 1.5-1.8 1.4-1.7 3.6 0 3.1 8.7 4.7l2.3.4q6.5 1.3 9.5 4.2 3 2.8 3.1 7.8.2 6.3-4 9.8-4.2 3.4-12 3.6-3.1 0-5.6-.3-2.4-.4-4.7-1.2-.5 1-1.2 1.3-.7.5-2 .5-2 0-3-.8-.8-.8-.9-2.8l-.3-8v-.3q0-2.3.7-3.2.9-.9 3-1 2.1 0 3.7 3.2l.6 1.1q1.3 2.6 3.7 3.9 2.4 1.2 5.8 1.1 3.1 0 4.8-1.4 1.7-1.3 1.7-3.6-.1-3.7-8-5.3l-3.7-.9q-6.6-1.6-9.2-4-2.6-2.6-2.7-7.1-.1-5.8 4.1-9.6 4.3-3.8 11.2-4 2.3 0 4.5.5 2.3.4 4.5 1.3zM569.4 828.9q-4 .4-6.2 3.2-2.3 2.8-2 6.8.5 4 3.3 6.5 2.8 2.4 6.7 2 4-.4 6.3-3.3 2.3-3 1.9-7-.4-4-3.2-6.3-2.8-2.3-6.8-2zm-.7-7.1q8.2-.8 13.7 3.2 5.6 4.1 6.3 11.3.7 7.2-4 12.3-4.6 5-12.8 5.9-8.1.8-13.7-3.3-5.5-4-6.2-11.3-.7-7.2 4-12.2 4.6-5.1 12.7-6zM617.8 817.2q.1-1.4.9-2.2.7-.8 2-1 1.8-.3 2.8.6 1 1 1.4 3.6l1 5.5q.4 2-.3 3.1-.6 1.1-2.4 1.4-1.2.3-2.1-.1-1-.5-2.2-1.9-1.7-2-4-2.7-2.5-.7-5.6-.2-3.9.7-6 3.7-2 3-1.2 7 .7 4.2 3.7 6.2 3 2.1 7.4 1.3 4-.7 7.4-3.5 3.5-3 4.4-3 1.2-.3 2.2.5 1 .8 1.2 2.2.6 3.2-3.7 6.5t-10.9 4.5q-8 1.4-14-2.2-5.7-3.7-7-10.8-1.3-7 3-12.5 4-5.5 11.7-6.9 2.5-.4 5-.2 2.6.2 5.3 1zM656.4 830.6l7-1.8q2.3-.6 3.4 0 1.2.5 1.7 2.4.5 2-.3 3-.7 1.1-3 1.7l-22 5.9q-2.3.6-3.5 0-1.1-.6-1.7-2.6-.5-1.9.2-3 .8-1 3-1.6l7.1-1.9-4.2-15.9-3.7 1q-2.2.6-3.4 0-1.1-.6-1.6-2.5-.6-2 .1-3t3-1.7l9.9-2.6q.9-.2 1.5 0 .5.3.7 1zM641.6 794q2.4-.6 3.4 0 1 .8 2 4.2.9 3.4.4 4.4-.5 1-3.1 1.7-2.6.6-3.5 0-1-.5-1.6-2.7-1-4.2-.6-5.6.4-1.3 3-2zM703.9 815l.5-.2q1.7-.6 3 0 1.2.5 1.8 2.2.6 1.8 0 3-.7 1.2-2.8 2l-3 1q-1.6.6-2.6.3-1-.4-2-1.8-2.1 2.7-4.7 4.7-2.7 2-5.7 3.1-5.1 1.9-9 .4-3.8-1.5-5.4-6-1.7-4.7 1.1-8.7 2.8-4 9.7-6.5 1.5-.6 3.3-1l4-.9-.2-.6q-1-2.9-3-3.9-1.9-1-4.6 0-2 .8-4.8 3.5-2.7 2.8-4.2 3.3-1.5.6-2.8 0-1.2-.5-1.7-2-1-2.5 2.3-5.4 3.2-2.9 9.7-5.2 6.8-2.5 10.7-1 3.8 1.6 6 7.8zm-10-3.4q-1.7.2-3 .6-1.5.2-2.6.7-3.5 1.2-5.1 3.1-1.6 2-.8 4 .6 1.8 2.3 2.4 1.6.5 4-.4 2.2-.8 3.9-2.1 1.7-1.4 3.1-3.4zM732.4 802.2l6.6-3.1q2-1 3.3-.7 1.2.4 2 2.2.9 1.8.4 3t-2.6 2.2l-20.7 9.8q-2 1-3.3.6-1.3-.4-2.1-2.2-.9-1.8-.4-3 .5-1 2.6-2l6.6-3.2-12.6-26.6-3.4 1.6q-2 1-3.3.7-1.3-.4-2.2-2.2-.8-1.8-.3-3 .5-1.3 2.6-2.3l9.2-4.3q.8-.4 1.4-.3.7.2 1 .8z"/>
    </g>
  </g>
  <path d="m512 19.7 423.5 244.5v489L512 997.8 88.5 753.2v-489z" fill="none" stroke="#000" stroke-width="3.8"/>
</svg>
